3bo8;A*01:01
4u6y;A*02:01
4u6x;A*02:01
6trn;A*02:01
1i4f;A*02:01
6o53;A*02:01
5ddh;A*02:01
6o4z;A*02:01
2gtw_1;A*02:01
2gtw_2;A*02:01
6o51;A*02:01
6o4y;A*02:01
7mj7;A*02:01
3utq;A*02:01
2gtz_1;A*02:01
2gtz_2;A*02:01
7mj9;A*02:01
7mj8;A*02:01
1duz_1;A*02:01
1duz_2;A*02:01
5c0g;A*02:01
5n1y;A*02:01
5c0f;A*02:01
5c0e;A*02:01
5c0i;A*02:01
5eu5;A*02:01
5nmh;A*02:01
2v2w_1;A*02:01
2v2w_2;A*02:01
2v2x_1;A*02:01
2v2x_2;A*02:01
2vll_1;A*02:01
2vll_2;A*02:01
3bgm;A*02:01
3pwn_1;A*02:01
3pwn_2;A*02:01
3v5h_1;A*02:01
3v5h_2;A*02:01
5c0j;A*02:01
3bh8;A*02:01
3fqn;A*02:01
3kla_1;A*02:01
3kla_2;A*02:01
3pwl_1;A*02:01
3pwl_2;A*02:01
4wj5_1;A*02:01
4wj5_2;A*02:01
5nmk;A*02:01
7p3d;A*02:01
3qfd_1;A*02:01
3qfd_2;A*02:01
5c0d;A*02:01
2git_1;A*02:01
2git_2;A*02:01
3bh9;A*02:01
3fqr;A*02:01
3fqx;A*02:01
3o3d_1;A*02:01
3o3d_2;A*02:01
3pwj_1;A*02:01
3pwj_2;A*02:01
5e00;A*02:01
3d25;A*02:01
4no3;A*02:01
5n6b_1;A*02:01
5n6b_2;A*02:01
2gt9_1;A*02:01
2gt9_2;A*02:01
4i4w;A*02:01
5meo;A*02:01
6opd;A*02:01
1i7u_1;A*02:01
1i7u_2;A*02:01
1tvb_1;A*02:01
1tvb_2;A*02:01
3fqt;A*02:01
3fqu;A*02:01
3o3a_1;A*02:01
3o3a_2;A*02:01
7kgq;A*02:01_245V
7kgp;A*02:01_245V
7kgr;A*02:01_245V
7kgs;A*02:01_245V
3mrb;A*02:01_245V
3mrk;A*02:01_245V
3gso;A*02:01_245V
3mrr;A*02:01_245V
3mrd;A*02:01_245V
3mre;A*02:01_245V
3mrg;A*02:01_245V
3ft2;A*02:01_245V
3gsu;A*02:01_245V
3mrc;A*02:01_245V
6tdp;A*02:01_84C_139C_245V
6tdq_1;A*02:01_84C_139C_245V
6tdq_2;A*02:01_84C_139C_245V
6tdo;A*02:01_84C_139C_245V
6tds_1;A*02:01_84C_139C_245V
6tds_2;A*02:01_84C_139C_245V
6tdr_1;A*02:01_84C_139C_245V
6tdr_2;A*02:01_84C_139C_245V
6q3k;A*02:01_84C_139C_245V
3oxr;A*02:06
3oxs;A*02:07
6joz;A*11:01
1x7q;A*11:01
7m8t;A*11:01
2hn7;A*11:01
6jp3;A*11:01
5grd;A*11:01
7jyv;A*24:02
7mja;A*24:02
4f7t_1;A*24:02
4f7t_2;A*24:02
7ejm;A*24:02
3wl9;A*24:02
6j1w;A*30:01
6j2a;A*30:03
6j29;A*30:03
6ei2;A*68:01
6at5;B*07:02
5eo0;B*07:02
4u1h;B*07:02
5wmp;B*07:02
5wmo;B*07:02
3vcl;B*07:02
4qrs;B*08:01
4qrt;B*08:01
4qru;B*08:01
4qrq;B*08:01
3spv;B*08:01
5wmr;B*08:01
3skm;B*08:01
5wmq;B*08:01_45M
3sko;B*08:01_66A
6p2c;B*08:01_76C
6p2f;B*08:01_76C
6p27;B*08:01_76C
6p23;B*08:01_76C
6p2s;B*08:01_76C
3x13;B*08:01_80I
5txs;B*15:01
1xr9;B*15:01
6vb2;B*15:02
6vb1;B*15:02
6uzm;B*15:02
6mt3;B*18:01
4xxc;B*18:01
4jqv;B*18:01
6pyl;B*27:03
6pz5;B*27:03
6pyv;B*27:03_47G
5def;B*27:04
6y2a;B*27:05
6y26;B*27:05
2a83;B*27:05
5ib2;B*27:05
6pyj;B*27:05
1ogt;B*27:05
1uxs;B*27:05
4g8i;B*27:05
4g9d;B*27:05
6y28;B*27:05
6vqe;B*27:05
3b6s;B*27:05
6pyw;B*27:05_60A
1k5n;B*27:09
3czf;B*27:09
6y29;B*27:09
6y2b;B*27:09
6y27;B*27:09
1uxw;B*27:09
3bp7;B*27:09
3d18;B*27:09_224E
7m8u;B*35:01
1xh3;B*35:01
1zhk;B*35:01
4prn;B*35:01
1zsd;B*35:01
2cik;B*35:01
3lko;B*35:01
3lkp;B*35:01
3lkq;B*35:01
4pr5;B*35:01
2fyy;B*35:01
5xos;B*35:01_34D
3bwa;B*35:08
1zhl;B*35:08
3vfv;B*35:08
3vfu;B*35:08
4pre;B*35:08
2nw3;B*35:08
3bw9;B*35:08
4prb;B*35:08
4prd;B*35:08
2axf;B*35:08
3vfn;B*35:08_151A
3vfo;B*35:08_157A
6mt6;B*37:01
6mt4;B*37:01
6mt5;B*37:01
5iek;B*40:02
5ieh;B*40:02_44A
3ln4;B*41:03
4u1m;B*42:01
4u1j;B*42:01
4u1n;B*42:02
1m6o;B*44:02
3kpm;B*44:02
3l3i;B*44:02
3dx6;B*44:02
3l3d;B*44:02
3dx7;B*44:03
1n2r;B*44:03
6mtl;B*44:05
1syv;B*44:05
4lcy_1;B*46:01
4lcy_2;B*46:01
6v2o;B*57:01
6bxp;B*57:01
6bxq;B*57:01
3vri;B*57:01
5t6x;B*57:01
5t6y;B*57:01
3vh8_1;B*57:01
3vh8_2;B*57:01
5vue;B*57:01
3x12;B*57:01_80N
6v2p;B*57:03
2bvp;B*57:03
6v2q;B*57:03
2bvo;B*57:03
5vwd;B*57:03
5vwf;B*57:03
2hjl;B*57:06
5vwh;B*58:01
4u1s;B*81:01
6jto;C*05:01
5w6a_1;C*06:02
5w6a_2;C*06:02
3kyo_1;G*01:04_41S_114R
3kyo_2;G*01:04_41S_114R
