HLA00132 B*07:02:01:01
HLA00135 B*07:03
HLA00136 B*07:04:01
HLA00137 B*07:05:01:01
HLA00138 B*07:06:01:01
HLA00139 B*07:07:01:01
HLA00140 B*07:08:01
HLA00141 B*07:09:01
HLA00142 B*07:10
HLA00143 B*07:11
HLA00144 B*07:12
HLA00145 B*07:13
HLA01049 B*07:14:01
HLA01050 B*07:15
HLA01051 B*07:16
HLA01110 B*07:17
HLA01116 B*07:18:01
HLA01176 B*07:19
HLA01184 B*07:20
HLA01253 B*07:21
HLA01257 B*07:22:01
HLA01286 B*07:23
HLA01293 B*07:24
HLA01358 B*07:25
HLA01362 B*07:26
HLA01435 B*07:27
HLA01516 B*07:28
HLA01548 B*07:29
HLA01577 B*07:30
HLA01618 B*07:31:01
HLA01725 B*07:32
HLA01742 B*07:33:01
HLA01750 B*07:34
HLA01783 B*07:35
HLA01808 B*07:36
HLA01881 B*07:37:01
HLA01883 B*07:38
HLA02089 B*07:39
HLA02129 B*07:40
HLA02164 B*07:41
HLA02175 B*07:42
HLA02247 B*07:43
HLA02393 B*07:45
HLA02446 B*07:46
HLA02463 B*07:47
HLA02514 B*07:48
HLA02560 B*07:50
HLA02713 B*07:51
HLA02796 B*07:52
HLA02805 B*07:53
HLA02844 B*07:54
HLA02873 B*07:55
HLA02910 B*07:56:01
HLA02968 B*07:57
HLA02978 B*07:58
HLA02991 B*07:59
HLA03137 B*07:60
HLA03166 B*07:61
HLA03179 B*07:62
HLA03237 B*07:63
HLA03264 B*07:64
HLA03294 B*07:65
HLA03342 B*07:66
HLA03514 B*07:68:01
HLA03605 B*07:69
HLA03610 B*07:70
HLA03611 B*07:71
HLA03622 B*07:72
HLA03658 B*07:73
HLA03660 B*07:74
HLA03679 B*07:75:01:01
HLA03692 B*07:76
HLA03761 B*07:77
HLA03933 B*07:78
HLA03934 B*07:79
HLA03936 B*07:80
HLA03937 B*07:81
HLA03940 B*07:82
HLA03942 B*07:83
HLA04067 B*07:84
HLA04074 B*07:85:01
HLA04079 B*07:86
HLA04092 B*07:87
HLA04097 B*07:88
HLA04099 B*07:89
HLA04109 B*07:90
HLA03981 B*07:91
HLA04172 B*07:92
HLA04193 B*07:93
HLA04219 B*07:94
HLA04233 B*07:95
HLA04241 B*07:96:01
HLA04243 B*07:97
HLA04248 B*07:98
HLA04250 B*07:99
HLA04861 B*07:100
HLA04924 B*07:101
HLA04925 B*07:102
HLA04929 B*07:103
HLA04931 B*07:104
HLA04933 B*07:105
HLA04935 B*07:106
HLA04964 B*07:107
HLA04966 B*07:108
HLA04981 B*07:109
HLA04993 B*07:110
HLA04884 B*07:112
HLA04886 B*07:113
HLA05094 B*07:114
HLA05095 B*07:115
HLA05106 B*07:116
HLA05531 B*07:117
HLA06041 B*07:118
HLA06061 B*07:119
HLA06131 B*07:120
HLA06187 B*07:121
HLA06224 B*07:122
HLA06225 B*07:123
HLA06285 B*07:124
HLA06317 B*07:125
HLA06318 B*07:126
HLA06319 B*07:127
HLA06586 B*07:128
HLA06658 B*07:129
HLA06659 B*07:130
HLA06677 B*07:131
HLA06690 B*07:132
HLA06691 B*07:133
HLA06905 B*07:134
HLA06970 B*07:136:01
HLA06980 B*07:137
HLA07035 B*07:138
HLA07039 B*07:139:01
HLA07205 B*07:140
HLA07206 B*07:141
HLA07208 B*07:142
HLA07305 B*07:143
HLA07354 B*07:144
HLA07465 B*07:145
HLA07466 B*07:146
HLA07468 B*07:147
HLA07469 B*07:148
HLA07659 B*07:149
HLA07660 B*07:150
HLA07662 B*07:151:01
HLA07721 B*07:152
HLA07723 B*07:153
HLA07724 B*07:154
HLA08050 B*07:155
HLA08052 B*07:156
HLA08134 B*07:157
HLA08135 B*07:158
HLA08137 B*07:159
HLA08138 B*07:160
HLA08305 B*07:162
HLA08380 B*07:163
HLA08381 B*07:164
HLA08382 B*07:165
HLA08383 B*07:166
HLA08386 B*07:168
HLA08443 B*07:169
HLA08470 B*07:170
HLA08520 B*07:171
HLA08521 B*07:172:01
HLA08522 B*07:173
HLA08523 B*07:174
HLA08567 B*07:175
HLA08684 B*07:176
HLA08934 B*07:177
HLA09005 B*07:178
HLA09007 B*07:179
HLA09008 B*07:180
HLA09172 B*07:183
HLA09318 B*07:184
HLA09338 B*07:185
HLA09430 B*07:186
HLA09443 B*07:187
HLA09444 B*07:188
HLA09445 B*07:189
HLA09446 B*07:190
HLA09487 B*07:191
HLA09491 B*07:192
HLA09493 B*07:193
HLA09588 B*07:194
HLA09589 B*07:195
HLA09590 B*07:196
HLA09591 B*07:197
HLA09592 B*07:198
HLA09917 B*07:199
HLA10046 B*07:200
HLA10048 B*07:202
HLA10049 B*07:203
HLA10141 B*07:204
HLA10420 B*07:205
HLA10423 B*07:206
HLA10518 B*07:207
HLA10519 B*07:208
HLA10643 B*07:209
HLA10859 B*07:210
HLA11036 B*07:211
HLA11055 B*07:212
HLA11223 B*07:213
HLA11248 B*07:214
HLA11332 B*07:215
HLA11435 B*07:216
HLA11446 B*07:217
HLA11448 B*07:218
HLA11449 B*07:219
HLA11719 B*07:220
HLA11735 B*07:221
HLA11837 B*07:222
HLA11840 B*07:223
HLA11948 B*07:224
HLA12036 B*07:225
HLA12171 B*07:226
HLA12176 B*07:227
HLA12307 B*07:228:01
HLA12308 B*07:229:01
HLA12311 B*07:230
HLA12313 B*07:232
HLA12486 B*07:233
HLA12569 B*07:234
HLA12586 B*07:235
HLA12587 B*07:236
HLA12686 B*07:237
HLA12759 B*07:238
HLA12760 B*07:239
HLA12761 B*07:240
HLA12862 B*07:241
HLA13015 B*07:242
HLA13016 B*07:243
HLA13017 B*07:244
HLA13019 B*07:245
HLA13020 B*07:246
HLA13022 B*07:247
HLA13191 B*07:248
HLA13200 B*07:249
HLA13222 B*07:250
HLA13341 B*07:252
HLA13359 B*07:253
HLA13360 B*07:254
HLA13364 B*07:255
HLA13542 B*07:256
HLA14235 B*07:257
HLA14237 B*07:258
HLA14314 B*07:259
HLA14315 B*07:260
HLA14402 B*07:261
HLA14448 B*07:262:01
HLA14451 B*07:263
HLA14455 B*07:264
HLA14481 B*07:265
HLA14619 B*07:266
HLA14620 B*07:267
HLA14735 B*07:268
HLA14884 B*07:269
HLA15035 B*07:270
HLA14941 B*07:271
HLA15287 B*07:273
HLA15288 B*07:274
HLA15291 B*07:275
HLA15468 B*07:276:01
HLA15417 B*07:277
HLA15640 B*07:278
HLA15641 B*07:279
HLA15646 B*07:280
HLA15740 B*07:281
HLA15577 B*07:282
HLA15612 B*07:283
HLA16246 B*07:284
HLA16253 B*07:286
HLA16056 B*07:287
HLA16503 B*07:288
HLA16504 B*07:289
HLA16506 B*07:290
HLA16741 B*07:291
HLA16935 B*07:292
HLA16937 B*07:293
HLA17046 B*07:294
HLA17404 B*07:295
HLA17500 B*07:296
HLA17567 B*07:297
HLA17595 B*07:298
HLA17747 B*07:299
HLA17866 B*07:300
HLA17867 B*07:301
HLA17868 B*07:302
HLA17869 B*07:303:01
HLA17765 B*07:304
HLA17767 B*07:305
HLA18362 B*07:306
HLA18364 B*07:307
HLA18409 B*07:308
HLA18420 B*07:309
HLA18422 B*07:310
HLA18429 B*07:311
HLA19095 B*07:312
HLA19113 B*07:313
HLA19132 B*07:314
HLA19187 B*07:317
HLA19518 B*07:319
HLA19551 B*07:320
HLA19219 B*07:321
HLA19759 B*07:322
HLA20316 B*07:323
HLA19984 B*07:324
HLA20480 B*07:326
HLA19988 B*07:327
HLA20267 B*07:328
HLA20417 B*07:329
HLA20155 B*07:331
HLA20032 B*07:332
HLA20009 B*07:333
HLA20496 B*07:334
HLA20199 B*07:335
HLA20981 B*07:336
HLA20658 B*07:337
HLA20969 B*07:338
HLA20833 B*07:339
HLA20760 B*07:340
HLA20703 B*07:341
HLA21002 B*07:342
HLA21210 B*07:344
HLA21496 B*07:345
HLA21384 B*07:346
HLA21413 B*07:347
HLA21371 B*07:348
HLA21405 B*07:349
HLA21752 B*07:350
HLA21829 B*07:352
HLA21644 B*07:353
HLA21675 B*07:354
HLA21817 B*07:355
HLA21792 B*07:356
HLA21642 B*07:357
HLA21843 B*07:358
HLA22777 B*07:359
HLA22946 B*07:360Q
HLA22862 B*07:361
HLA22874 B*07:362
HLA22875 B*07:363
HLA22947 B*07:364
HLA22994 B*07:365
HLA22955 B*07:366
HLA22844 B*07:367
HLA23715 B*07:368
HLA23497 B*07:369
HLA23378 B*07:370
HLA23414 B*07:371
HLA23445 B*07:372
HLA23278 B*07:375
HLA23276 B*07:376
HLA23032 B*07:377
HLA23440 B*07:378
HLA24149 B*07:379
HLA24086 B*07:380
HLA23827 B*07:381
HLA24080 B*07:382
HLA23878 B*07:383
HLA23845 B*07:384
HLA23941 B*07:385
HLA25435 B*07:387
HLA24798 B*07:388
HLA25890 B*07:389
HLA25996 B*07:390
HLA25804 B*07:391
HLA25720 B*07:392
HLA25690 B*07:393
HLA25639 B*07:394
HLA26114 B*07:395
HLA26308 B*07:396
HLA26272 B*07:397
HLA26298 B*07:398
HLA26328 B*07:399
HLA26841 B*07:400
HLA27084 B*07:401
HLA27726 B*07:402
HLA27767 B*07:403
HLA27831 B*07:404
HLA27794 B*07:405
HLA28043 B*07:406
HLA28055 B*07:407
HLA28905 B*07:408
HLA28829 B*07:409
HLA29073 B*07:410
HLA29075 B*07:411
HLA29089 B*07:412
HLA29108 B*07:413
HLA29120 B*07:414
HLA29815 B*07:416
HLA30487 B*07:417
HLA30262 B*07:418
HLA30331 B*07:419
HLA30140 B*07:420
HLA30257 B*07:421
HLA29907 B*07:422
HLA30585 B*07:423
HLA30720 B*07:424
HLA30858 B*07:426Q
HLA30947 B*07:427
HLA31373 B*07:428
HLA31673 B*07:429
HLA31709 B*07:430
HLA31818 B*07:431
HLA31468 B*07:432
HLA31498 B*07:433
HLA31682 B*07:434
HLA02990 B*07:436
HLA32042 B*07:437
HLA32140 B*07:438
HLA32108 B*07:439
HLA31870 B*07:440
HLA31900 B*07:441
HLA32068 B*07:442
HLA32232 B*07:443
HLA32162 B*07:444
HLA32544 B*07:445
HLA32434 B*07:447
HLA32378 B*07:448
HLA32513 B*07:449
HLA32371 B*07:450
HLA32372 B*07:451
HLA32616 B*07:452
HLA32550 B*07:453
HLA32859 B*07:454
HLA32981 B*07:455
HLA32971 B*07:456
HLA33697 B*07:457
HLA00146 B*08:01:01:01
HLA00147 B*08:02
HLA00148 B*08:03
HLA00149 B*08:04:01
HLA00150 B*08:05
HLA00974 B*08:07
HLA00976 B*08:09
HLA01082 B*08:10
HLA01193 B*08:11
HLA01230 B*08:12:01
HLA01352 B*08:13
HLA01418 B*08:14
HLA01535 B*08:15
HLA01641 B*08:16
HLA01654 B*08:17
HLA01701 B*08:18
HLA01752 B*08:20:01
HLA01772 B*08:21
HLA01917 B*08:22
HLA02132 B*08:23
HLA02142 B*08:24
HLA02252 B*08:25
HLA02308 B*08:26:01
HLA02406 B*08:27
HLA02490 B*08:28
HLA02496 B*08:29
HLA02762 B*08:31
HLA02771 B*08:32
HLA02849 B*08:33
HLA03091 B*08:34
HLA03164 B*08:35
HLA03265 B*08:36
HLA03450 B*08:37
HLA03481 B*08:38:01
HLA03663 B*08:39
HLA03648 B*08:40
HLA03902 B*08:41
HLA03941 B*08:42
HLA04081 B*08:43
HLA04188 B*08:44
HLA04230 B*08:45
HLA04234 B*08:46
HLA04240 B*08:47
HLA04438 B*08:48
HLA04442 B*08:49
HLA04499 B*08:50
HLA04507 B*08:51
HLA04515 B*08:52
HLA04516 B*08:53:01
HLA04520 B*08:54:01
HLA04708 B*08:55
HLA04720 B*08:56:01
HLA04722 B*08:57
HLA04753 B*08:58
HLA04788 B*08:59:01
HLA04816 B*08:60
HLA04860 B*08:61
HLA05290 B*08:62
HLA05506 B*08:63
HLA05510 B*08:64
HLA05720 B*08:65
HLA05861 B*08:66
HLA06259 B*08:68
HLA06260 B*08:69
HLA06664 B*08:70
HLA06682 B*08:71
HLA06928 B*08:73
HLA06943 B*08:74
HLA06956 B*08:75
HLA06984 B*08:76
HLA06996 B*08:77
HLA07191 B*08:78
HLA07386 B*08:79
HLA07418 B*08:80
HLA07442 B*08:81
HLA07444 B*08:83
HLA07445 B*08:84
HLA07446 B*08:85
HLA07636 B*08:87
HLA07638 B*08:88
HLA08041 B*08:89
HLA07911 B*08:90
HLA07912 B*08:91
HLA07913 B*08:92
HLA08097 B*08:93
HLA08141 B*08:94
HLA08339 B*08:95
HLA08340 B*08:96:01
HLA08343 B*08:97
HLA08508 B*08:98
HLA08509 B*08:99
HLA08510 B*08:100
HLA08581 B*08:101
HLA08666 B*08:102
HLA08668 B*08:103
HLA08669 B*08:104
HLA08784 B*08:105
HLA09112 B*08:106
HLA09429 B*08:107
HLA09450 B*08:108
HLA09512 B*08:109
HLA09557 B*08:110
HLA09874 B*08:111
HLA09892 B*08:112
HLA10192 B*08:113
HLA10531 B*08:114
HLA10681 B*08:115
HLA10926 B*08:116
HLA11010 B*08:117
HLA11011 B*08:118
HLA11012 B*08:119
HLA11233 B*08:120
HLA11323 B*08:121
HLA11476 B*08:122
HLA11322 B*08:123
HLA11652 B*08:124
HLA11723 B*08:125
HLA11725 B*08:126
HLA11727 B*08:127
HLA11820 B*08:128
HLA11823 B*08:129
HLA12001 B*08:130
HLA12002 B*08:131
HLA11937 B*08:132
HLA12167 B*08:133
HLA12168 B*08:134
HLA12268 B*08:135
HLA12269 B*08:136
HLA12475 B*08:137
HLA12607 B*08:138
HLA12710 B*08:139
HLA12662 B*08:140
HLA12984 B*08:141
HLA12985 B*08:142
HLA13339 B*08:143
HLA13340 B*08:144
HLA13343 B*08:145
HLA13354 B*08:146
HLA13333 B*08:147
HLA13469 B*08:149
HLA13470 B*08:150
HLA13471 B*08:151
HLA13797 B*08:152
HLA13855 B*08:153
HLA13969 B*08:154
HLA13788 B*08:155
HLA14144 B*08:156
HLA14297 B*08:157
HLA14298 B*08:158
HLA14617 B*08:159
HLA14683 B*08:160
HLA14727 B*08:161
HLA14926 B*08:162
HLA14961 B*08:163
HLA15269 B*08:164
HLA15164 B*08:165
HLA15962 B*08:166
HLA16228 B*08:167
HLA16234 B*08:168
HLA16255 B*08:169
HLA16258 B*08:170
HLA16262 B*08:171
HLA16321 B*08:172
HLA16328 B*08:173
HLA16476 B*08:174
HLA16477 B*08:175
HLA16886 B*08:176
HLA16851 B*08:177
HLA16863 B*08:178
HLA16998 B*08:179
HLA17087 B*08:180
HLA17157 B*08:181
HLA17405 B*08:182
HLA17464 B*08:183
HLA17469 B*08:184
HLA17831 B*08:185
HLA17832 B*08:186
HLA17833 B*08:187
HLA17834 B*08:188
HLA17835 B*08:189:01
HLA17836 B*08:190
HLA18342 B*08:191
HLA18353 B*08:192
HLA18365 B*08:193
HLA18440 B*08:194
HLA18561 B*08:195
HLA19060 B*08:196
HLA19298 B*08:197
HLA19333 B*08:198
HLA19647 B*08:199
HLA19621 B*08:200
HLA20306 B*08:201
HLA20284 B*08:202
HLA20246 B*08:203
HLA20126 B*08:204
HLA20314 B*08:205
HLA19986 B*08:206
HLA20462 B*08:207
HLA20415 B*08:208
HLA20612 B*08:209
HLA20748 B*08:210
HLA20891 B*08:211
HLA20973 B*08:212
HLA20549 B*08:213:01
HLA21386 B*08:216
HLA21164 B*08:217
HLA21299 B*08:218
HLA21816 B*08:219
HLA21777 B*08:221
HLA21698 B*08:222
HLA21866 B*08:223
HLA21723 B*08:224
HLA22015 B*08:225
HLA22497 B*08:226
HLA22690 B*08:227
HLA22936 B*08:228
HLA22969 B*08:229
HLA22850 B*08:230
HLA23097 B*08:231
HLA23579 B*08:232
HLA23553 B*08:233
HLA23219 B*08:234
HLA23187 B*08:235
HLA23141 B*08:237
HLA23111 B*08:238
HLA23693 B*08:239
HLA23798 B*08:240
HLA23283 B*08:241
HLA23750 B*08:242
HLA24271 B*08:243
HLA24183 B*08:244
HLA24324 B*08:245
HLA24900 B*08:246
HLA25225 B*08:247
HLA25925 B*08:248
HLA26159 B*08:249
HLA26263 B*08:250
HLA26362 B*08:251
HLA26968 B*08:253
HLA27281 B*08:254
HLA27103 B*08:255
HLA27751 B*08:256
HLA27576 B*08:257
HLA28019 B*08:258
HLA28042 B*08:259
HLA28041 B*08:260
HLA28066 B*08:261
HLA28082 B*08:262
HLA28860 B*08:263
HLA29112 B*08:264
HLA29152 B*08:265
HLA29641 B*08:266
HLA29830 B*08:267
HLA30411 B*08:268
HLA30726 B*08:269
HLA30676 B*08:270Q
HLA30707 B*08:271
HLA30702 B*08:272
HLA30945 B*08:273
HLA31358 B*08:274
HLA30951 B*08:275
HLA31148 B*08:276
HLA31022 B*08:277
HLA31169 B*08:278
HLA31630 B*08:280
HLA31886 B*08:281
HLA31917 B*08:282
HLA31937 B*08:283
HLA32014 B*08:284Q
HLA31975 B*08:285
HLA31935 B*08:286
HLA32604 B*08:288
HLA32327 B*08:289
HLA32516 B*08:290
HLA32307 B*08:291
HLA32349 B*08:292
HLA00152 B*13:01:01:01
HLA00153 B*13:02:01:01
HLA00154 B*13:03
HLA00155 B*13:04
HLA01276 B*13:06
HLA01476 B*13:08
HLA01486 B*13:09
HLA01591 B*13:10
HLA01632 B*13:11
HLA01840 B*13:12:01
HLA01858 B*13:13:01
HLA02360 B*13:14
HLA02389 B*13:15
HLA02516 B*13:16
HLA02619 B*13:17
HLA02872 B*13:18
HLA02929 B*13:19
HLA02930 B*13:20
HLA03138 B*13:21
HLA03315 B*13:22:01
HLA03479 B*13:23
HLA03834 B*13:25
HLA03944 B*13:26:01
HLA04107 B*13:27
HLA03982 B*13:28
HLA04195 B*13:29
HLA04207 B*13:30
HLA04436 B*13:31
HLA04414 B*13:32
HLA04502 B*13:33
HLA04554 B*13:34
HLA04567 B*13:35
HLA04650 B*13:36
HLA04787 B*13:37
HLA05118 B*13:38
HLA05134 B*13:39
HLA05809 B*13:40
HLA06024 B*13:41
HLA06056 B*13:42
HLA06149 B*13:43
HLA06236 B*13:44
HLA06263 B*13:45
HLA06264 B*13:46
HLA06933 B*13:47
HLA06958 B*13:48
HLA07033 B*13:50
HLA07094 B*13:51
HLA07105 B*13:52
HLA07693 B*13:53
HLA07694 B*13:54
HLA07892 B*13:55
HLA07916 B*13:57
HLA08058 B*13:58
HLA08345 B*13:59
HLA08573 B*13:60
HLA08574 B*13:61
HLA08671 B*13:62
HLA09155 B*13:64
HLA09431 B*13:65
HLA09442 B*13:66
HLA09456 B*13:67
HLA09501 B*13:68
HLA09563 B*13:69
HLA09645 B*13:70
HLA09894 B*13:71
HLA10405 B*13:72
HLA10682 B*13:73
HLA11013 B*13:74
HLA11014 B*13:75
HLA11235 B*13:77
HLA11424 B*13:78
HLA11655 B*13:79
HLA11712 B*13:80
HLA12134 B*13:81
HLA12442 B*13:82
HLA12870 B*13:83
HLA13650 B*13:84
HLA13769 B*13:85
HLA14300 B*13:86
HLA14209 B*13:87
HLA14612 B*13:88
HLA14729 B*13:89
HLA14690 B*13:90
HLA14783 B*13:91
HLA14889 B*13:92
HLA15268 B*13:93
HLA15551 B*13:94
HLA15400 B*13:95
HLA15414 B*13:96
HLA16217 B*13:97
HLA16050 B*13:98
HLA16437 B*13:99
HLA16742 B*13:100
HLA16887 B*13:101
HLA16994 B*13:102
HLA17582 B*13:104
HLA17584 B*13:105
HLA17602 B*13:106
HLA17838 B*13:107
HLA18034 B*13:108
HLA18142 B*13:109
HLA18567 B*13:110
HLA19065 B*13:111
HLA19252 B*13:112
HLA19347 B*13:113
HLA19653 B*13:114
HLA19833 B*13:115
HLA20490 B*13:117
HLA20423 B*13:118
HLA20376 B*13:119
HLA19974 B*13:120
HLA20164 B*13:121
HLA20046 B*13:122
HLA20105 B*13:123Q
HLA20573 B*13:124
HLA20511 B*13:125
HLA21191 B*13:126
HLA21472 B*13:127
HLA21729 B*13:128
HLA21662 B*13:129
HLA21841 B*13:130
HLA22765 B*13:131
HLA22944 B*13:132
HLA22902 B*13:133
HLA23718 B*13:134
HLA23333 B*13:135
HLA24299 B*13:136
HLA25150 B*13:138
HLA26229 B*13:140
HLA26991 B*13:141
HLA28047 B*13:142
HLA28063 B*13:143
HLA28783 B*13:144
HLA28623 B*13:145
HLA28644 B*13:146
HLA28840 B*13:147
HLA29006 B*13:148
HLA29087 B*13:149
HLA29295 B*13:150
HLA29619 B*13:151
HLA29772 B*13:152
HLA29797 B*13:153
HLA30806 B*13:154
HLA30719 B*13:155
HLA30621 B*13:156
HLA30844 B*13:157
HLA31140 B*13:158
HLA31057 B*13:159
HLA31245 B*13:160
HLA31032 B*13:162
HLA31161 B*13:163
HLA32020 B*13:164
HLA32109 B*13:165
HLA32154 B*13:166
HLA31906 B*13:167
HLA32514 B*13:168
HLA32962 B*13:169
HLA33227 B*13:170
HLA33655 B*13:171
HLA00157 B*14:01:01:01
HLA00158 B*14:02:01:01
HLA00159 B*14:03
HLA00160 B*14:04
HLA00161 B*14:05
HLA00977 B*14:06:01
HLA03283 B*14:08:01
HLA03318 B*14:09
HLA03639 B*14:10
HLA03664 B*14:11
HLA04027 B*14:12
HLA04055 B*14:13
HLA04066 B*14:14
HLA04176 B*14:15
HLA04192 B*14:16
HLA04532 B*14:17
HLA04565 B*14:18
HLA05474 B*14:19
HLA05928 B*14:20
HLA05960 B*14:21
HLA06324 B*14:22
HLA06325 B*14:23
HLA06357 B*14:24
HLA06950 B*14:25
HLA06990 B*14:26
HLA07004 B*14:27
HLA07190 B*14:28
HLA07463 B*14:29
HLA07658 B*14:30
HLA07717 B*14:31
HLA07725 B*14:32
HLA08376 B*14:33
HLA09585 B*14:34
HLA09586 B*14:35
HLA09587 B*14:36
HLA09699 B*14:37
HLA10417 B*14:38
HLA11331 B*14:39
HLA11333 B*14:40
HLA12305 B*14:42:01
HLA12758 B*14:43
HLA13013 B*14:44
HLA13014 B*14:45
HLA13358 B*14:46
HLA13544 B*14:47
HLA13662 B*14:48
HLA13628 B*14:49
HLA13860 B*14:50
HLA14313 B*14:51
HLA14447 B*14:52
HLA14490 B*14:53
HLA14734 B*14:54
HLA15644 B*14:55
HLA16820 B*14:56
HLA17080 B*14:57
HLA17998 B*14:58
HLA18090 B*14:59
HLA18180 B*14:60
HLA18408 B*14:61
HLA19473 B*14:62
HLA19281 B*14:63
HLA19600 B*14:64
HLA20459 B*14:65
HLA20078 B*14:66
HLA20957 B*14:67
HLA21398 B*14:68
HLA22879 B*14:70Q
HLA22840 B*14:71
HLA23665 B*14:73
HLA23566 B*14:74
HLA23705 B*14:75
HLA23332 B*14:77
HLA24039 B*14:80
HLA23864 B*14:81
HLA24133 B*14:82
HLA24363 B*14:83
HLA25514 B*14:84
HLA26117 B*14:86
HLA27102 B*14:87
HLA27752 B*14:88
HLA28024 B*14:89
HLA28044 B*14:90
HLA28386 B*14:91
HLA28450 B*14:92
HLA28859 B*14:93
HLA29084 B*14:94
HLA29106 B*14:95
HLA29260 B*14:96
HLA29385 B*14:97
HLA29664 B*14:98
HLA29646 B*14:99
HLA30692 B*14:102
HLA30988 B*14:103
HLA31501 B*14:104
HLA32138 B*14:105
HLA32106 B*14:106
HLA32457 B*14:107
HLA33289 B*14:108Q
HLA33392 B*14:109
HLA00162 B*15:01:01:01
HLA00165 B*15:02:01:01
HLA00166 B*15:03:01:01
HLA00167 B*15:04:01:01
HLA00168 B*15:05:01:01
HLA00169 B*15:06
HLA00170 B*15:07:01:01
HLA00171 B*15:08:01:01
HLA00172 B*15:09:01
HLA00173 B*15:10:01:01
HLA00174 B*15:11:01
HLA00175 B*15:12:01
HLA00176 B*15:13:01
HLA00177 B*15:14
HLA00178 B*15:15:01:01
HLA00179 B*15:16:01:01
HLA00180 B*15:17:01:01
HLA00181 B*15:18:01:01
HLA00182 B*15:19
HLA00183 B*15:20
HLA00184 B*15:21:01:01
HLA00186 B*15:23
HLA00187 B*15:24:01
HLA00188 B*15:25:01:01
HLA00190 B*15:27:01:01
HLA00191 B*15:28
HLA00192 B*15:29:01:01
HLA00193 B*15:30:01:01
HLA00194 B*15:31:01:01
HLA00195 B*15:32:01
HLA00196 B*15:33
HLA00197 B*15:34:01
HLA00198 B*15:35:01:01
HLA00199 B*15:36
HLA00200 B*15:37
HLA00201 B*15:38:01
HLA00202 B*15:39:01:01
HLA00203 B*15:40:01
HLA00205 B*15:42
HLA00206 B*15:43
HLA00207 B*15:44
HLA00208 B*15:45
HLA00209 B*15:46
HLA00210 B*15:47:01
HLA00211 B*15:48
HLA00212 B*15:49
HLA00979 B*15:50
HLA00980 B*15:51
HLA01053 B*15:52
HLA01054 B*15:53
HLA01103 B*15:54
HLA01113 B*15:55
HLA01114 B*15:56
HLA01117 B*15:57
HLA01118 B*15:58
HLA01200 B*15:60
HLA01250 B*15:61
HLA01271 B*15:62
HLA01284 B*15:63
HLA01285 B*15:64:01
HLA01426 B*15:65
HLA01440 B*15:66
HLA01448 B*15:67
HLA01479 B*15:68
HLA01494 B*15:69
HLA01536 B*15:70
HLA01561 B*15:71
HLA01567 B*15:72
HLA01611 B*15:73:01:01
HLA01679 B*15:74
HLA01690 B*15:75
HLA01698 B*15:76
HLA01743 B*15:77
HLA01751 B*15:78:01:01
HLA01768 B*15:80
HLA01792 B*15:81
HLA01801 B*15:82
HLA01845 B*15:83:01:01
HLA01900 B*15:84
HLA01911 B*15:85
HLA01912 B*15:86
HLA01913 B*15:87
HLA01915 B*15:88
HLA01916 B*15:89:01
HLA01950 B*15:90
HLA01951 B*15:91
HLA01975 B*15:92
HLA01989 B*15:93
HLA02032 B*15:95
HLA02035 B*15:96
HLA02099 B*15:97
HLA02113 B*15:98
HLA02119 B*15:99
HLA02140 B*15:101
HLA02184 B*15:102
HLA02236 B*15:103
HLA02244 B*15:104
HLA02330 B*15:105
HLA02332 B*15:106
HLA02368 B*15:107
HLA02376 B*15:108
HLA02387 B*15:109
HLA02421 B*15:110
HLA02465 B*15:112
HLA02483 B*15:113
HLA02492 B*15:114
HLA02515 B*15:115
HLA02545 B*15:116
HLA02618 B*15:117
HLA02639 B*15:118
HLA02642 B*15:119
HLA02665 B*15:120
HLA02674 B*15:121
HLA02759 B*15:122
HLA02772 B*15:123
HLA02773 B*15:124
HLA02781 B*15:125:01
HLA02792 B*15:126
HLA02823 B*15:127
HLA02875 B*15:128
HLA02882 B*15:129
HLA02974 B*15:131
HLA02976 B*15:132
HLA03019 B*15:133
HLA03047 B*15:134
HLA03080 B*15:135
HLA03087 B*15:136
HLA03092 B*15:137
HLA03093 B*15:138
HLA03094 B*15:139
HLA03202 B*15:140
HLA03217 B*15:141
HLA03244 B*15:142
HLA03267 B*15:143
HLA03269 B*15:144
HLA03281 B*15:145
HLA03287 B*15:146
HLA03319 B*15:147
HLA03334 B*15:148
HLA03441 B*15:150
HLA03470 B*15:151
HLA03603 B*15:152
HLA03606 B*15:153
HLA03614 B*15:154
HLA03615 B*15:155
HLA03620 B*15:156
HLA03646 B*15:157
HLA03693 B*15:158
HLA03708 B*15:159
HLA03711 B*15:160:01:01
HLA03804 B*15:161
HLA03951 B*15:162
HLA03947 B*15:163
HLA03949 B*15:164
HLA04052 B*15:165
HLA04078 B*15:166
HLA04084 B*15:167
HLA03985 B*15:168
HLA03990 B*15:169
HLA04028 B*15:170
HLA04169 B*15:171
HLA04171 B*15:172
HLA04187 B*15:173
HLA04213 B*15:174
HLA04218 B*15:175
HLA04232 B*15:176
HLA04242 B*15:177
HLA04158 B*15:178
HLA04159 B*15:179:01
HLA04165 B*15:180
HLA04508 B*15:183
HLA04533 B*15:184
HLA04413 B*15:185
HLA04635 B*15:186
HLA04684 B*15:187
HLA04727 B*15:188
HLA04742 B*15:189:01
HLA04792 B*15:191
HLA05135 B*15:192
HLA05258 B*15:193
HLA05259 B*15:194
HLA05260 B*15:195
HLA05263 B*15:196
HLA05264 B*15:197:01
HLA05265 B*15:198
HLA05266 B*15:199
HLA05369 B*15:200
HLA05380 B*15:201
HLA05381 B*15:202
HLA05471 B*15:203
HLA05479 B*15:204
HLA05489 B*15:205
HLA05500 B*15:206
HLA05509 B*15:207
HLA05516 B*15:208
HLA05953 B*15:210
HLA05957 B*15:211
HLA06030 B*15:212
HLA06031 B*15:213
HLA06032 B*15:214
HLA06033 B*15:215
HLA06184 B*15:216
HLA06222 B*15:217
HLA06248 B*15:218Q
HLA06267 B*15:219
HLA06273 B*15:220:01:01
HLA06282 B*15:221
HLA06366 B*15:222
HLA06652 B*15:223
HLA06654 B*15:224
HLA06680 B*15:225
HLA06893 B*15:227
HLA06903 B*15:228
HLA06921 B*15:229
HLA06930 B*15:230
HLA06947 B*15:231
HLA06948 B*15:232
HLA06988 B*15:233
HLA06997 B*15:234
HLA07093 B*15:235
HLA07179 B*15:236
HLA07385 B*15:237
HLA07412 B*15:238
HLA07453 B*15:239
HLA07649 B*15:240
HLA07650 B*15:241
HLA07653 B*15:242:01
HLA07712 B*15:243
HLA07713 B*15:244
HLA07918 B*15:245:01Q
HLA07933 B*15:247
HLA08068 B*15:248
HLA08069 B*15:249
HLA08070 B*15:250
HLA08072 B*15:251:01
HLA08074 B*15:252
HLA08075 B*15:253
HLA08144 B*15:254
HLA08321 B*15:255
HLA08368 B*15:256
HLA08405 B*15:257
HLA08417 B*15:259
HLA08514 B*15:260
HLA08515 B*15:261
HLA08595 B*15:263
HLA08783 B*15:264
HLA08926 B*15:265
HLA09000 B*15:266
HLA09074 B*15:267
HLA08996 B*15:268
HLA09120 B*15:269
HLA09159 B*15:270
HLA09329 B*15:271
HLA09438 B*15:273
HLA09440 B*15:274
HLA09454 B*15:275:01
HLA09517 B*15:276
HLA09573 B*15:277
HLA09574 B*15:278
HLA09576 B*15:279
HLA09578 B*15:280
HLA09695 B*15:281
HLA09708 B*15:282
HLA09914 B*15:283
HLA10029 B*15:284
HLA10032 B*15:285
HLA10034 B*15:286
HLA10035 B*15:287
HLA10036 B*15:288
HLA10037 B*15:289
HLA10042 B*15:290
HLA10052 B*15:291
HLA10414 B*15:292
HLA10415 B*15:293
HLA10463 B*15:295
HLA10464 B*15:296
HLA10465 B*15:297
HLA10466 B*15:298
HLA10467 B*15:299
HLA10687 B*15:300
HLA10688 B*15:301
HLA10694 B*15:303
HLA10875 B*15:305
HLA10876 B*15:306
HLA10878 B*15:307
HLA11018 B*15:308
HLA11024 B*15:309
HLA11026 B*15:310
HLA11028 B*15:311
HLA11029 B*15:312
HLA11244 B*15:313
HLA11245 B*15:314
HLA11324 B*15:315
HLA11329 B*15:316
HLA11428 B*15:317
HLA11429 B*15:318
HLA11483 B*15:319
HLA11478 B*15:320
HLA11563 B*15:321Q
HLA11564 B*15:322
HLA11660 B*15:323
HLA11728 B*15:324
HLA11774 B*15:325
HLA12039 B*15:326
HLA12071 B*15:327
HLA12132 B*15:328
HLA12133 B*15:329
HLA12285 B*15:330
HLA12289 B*15:331
HLA12290 B*15:332
HLA12291 B*15:333
HLA12292 B*15:334
HLA12299 B*15:335
HLA12477 B*15:336
HLA12483 B*15:337
HLA12567 B*15:338
HLA12458 B*15:339
HLA12734 B*15:340
HLA12753 B*15:341
HLA12754 B*15:342
HLA12755 B*15:343
HLA12977 B*15:344
HLA12989 B*15:345
HLA13003 B*15:346
HLA13007 B*15:347
HLA13184 B*15:348
HLA13210 B*15:349:01
HLA13219 B*15:350
HLA13220 B*15:351
HLA13240 B*15:352
HLA13244 B*15:353
HLA13361 B*15:354
HLA13327 B*15:355
HLA13475 B*15:356
HLA13479 B*15:357
HLA13371 B*15:358
HLA13378 B*15:359
HLA13534 B*15:360
HLA13535 B*15:361
HLA13548 B*15:362
HLA13659 B*15:363:01
HLA13857 B*15:364
HLA13858 B*15:365
HLA13859 B*15:366
HLA13759 B*15:367
HLA14011 B*15:368
HLA14015 B*15:369
HLA13978 B*15:370
HLA14140 B*15:371
HLA14151 B*15:372
HLA14158 B*15:373
HLA14115 B*15:374
HLA14309 B*15:376
HLA14221 B*15:377Q
HLA14442 B*15:378
HLA14446 B*15:379
HLA14725 B*15:381
HLA14737 B*15:382
HLA14821 B*15:383
HLA14932 B*15:384
HLA14934 B*15:385
HLA14935 B*15:386
HLA14936 B*15:387
HLA14874 B*15:388
HLA14876 B*15:389
HLA14974 B*15:390
HLA14975 B*15:391
HLA14976 B*15:392
HLA14977 B*15:393
HLA15276 B*15:394
HLA15277 B*15:395
HLA15278 B*15:396
HLA15282 B*15:397
HLA15149 B*15:398
HLA15394 B*15:399
HLA15408 B*15:401
HLA15636 B*15:402
HLA15637 B*15:403
HLA15968 B*15:404
HLA15780 B*15:405
HLA16221 B*15:406
HLA16222 B*15:407
HLA16232 B*15:408
HLA16233 B*15:409
HLA16235 B*15:410
HLA16236 B*15:411
HLA16259 B*15:412
HLA16267 B*15:413
HLA16043 B*15:414
HLA16237 B*15:415
HLA16335 B*15:416
HLA16391 B*15:417
HLA16483 B*15:418
HLA16484 B*15:419
HLA16492 B*15:420
HLA16493 B*15:421
HLA16494 B*15:422
HLA16495 B*15:423
HLA16496 B*15:424
HLA16761 B*15:425
HLA16883 B*15:426
HLA16933 B*15:427
HLA17222 B*15:428
HLA17332 B*15:429
HLA17753 B*15:430
HLA17856 B*15:431
HLA17857 B*15:432
HLA17862 B*15:433
HLA17757 B*15:434
HLA18076 B*15:435
HLA18131 B*15:436
HLA18143 B*15:437
HLA18276 B*15:438
HLA18178 B*15:439
HLA18352 B*15:440
HLA18410 B*15:441
HLA18421 B*15:442
HLA18427 B*15:443
HLA18436 B*15:444
HLA18443 B*15:445
HLA18736 B*15:446
HLA19182 B*15:447
HLA19070 B*15:448
HLA19148 B*15:449
HLA19068 B*15:450
HLA19463 B*15:451
HLA19220 B*15:452
HLA19389 B*15:453
HLA19245 B*15:455
HLA19785 B*15:456
HLA19709 B*15:457
HLA19614 B*15:458
HLA19923 B*15:459
HLA19844 B*15:460
HLA19808 B*15:461
HLA19676 B*15:462
HLA19828 B*15:464
HLA19871 B*15:465
HLA20153 B*15:466
HLA20165 B*15:467
HLA20271 B*15:468
HLA20014 B*15:469
HLA20425 B*15:470
HLA20142 B*15:471
HLA20283 B*15:472
HLA20171 B*15:473
HLA20006 B*15:474
HLA20195 B*15:475
HLA20003 B*15:476
HLA20674 B*15:477
HLA20633 B*15:478
HLA20610 B*15:479
HLA20806 B*15:480
HLA20787 B*15:481
HLA20838 B*15:482
HLA21054 B*15:484
HLA20885 B*15:485
HLA20877 B*15:486
HLA21512 B*15:488
HLA21414 B*15:489
HLA21258 B*15:490
HLA21198 B*15:491
HLA21455 B*15:492
HLA21486 B*15:493
HLA21581 B*15:494
HLA21583 B*15:495
HLA21793 B*15:497
HLA21819 B*15:498
HLA22157 B*15:499
HLA22169 B*15:500
HLA22022 B*15:501
HLA21997 B*15:502
HLA22149 B*15:503
HLA21961 B*15:504
HLA22249 B*15:505
HLA22241 B*15:506
HLA22503 B*15:507
HLA22319 B*15:508
HLA22406 B*15:509
HLA22475 B*15:510
HLA22539 B*15:511
HLA22387 B*15:512
HLA22464 B*15:513
HLA22599 B*15:514
HLA22579 B*15:515
HLA22748 B*15:516
HLA22759 B*15:517
HLA22692 B*15:518
HLA22734 B*15:519
HLA22693 B*15:520Q
HLA22971 B*15:521
HLA22814 B*15:522
HLA22991 B*15:523
HLA22941 B*15:524
HLA22964 B*15:525
HLA22810 B*15:526
HLA22939 B*15:527
HLA22872 B*15:529
HLA23395 B*15:530
HLA23119 B*15:531
HLA23013 B*15:532
HLA23007 B*15:533
HLA23425 B*15:534
HLA23808 B*15:535
HLA23173 B*15:536
HLA23254 B*15:537
HLA23166 B*15:538
HLA23989 B*15:539
HLA24338 B*15:541
HLA24292 B*15:542
HLA24295 B*15:543
HLA23891 B*15:545
HLA24026 B*15:546Q
HLA24246 B*15:547
HLA24949 B*15:548
HLA24950 B*15:550
HLA25234 B*15:551
HLA25041 B*15:552
HLA24724 B*15:553
HLA25798 B*15:554
HLA25955 B*15:555
HLA26168 B*15:556
HLA26528 B*15:557
HLA26423 B*15:558
HLA26859 B*15:559
HLA27069 B*15:560
HLA27092 B*15:561
HLA27717 B*15:563
HLA27733 B*15:564
HLA27747 B*15:565
HLA27764 B*15:566
HLA27765 B*15:567
HLA28062 B*15:568
HLA28387 B*15:569
HLA28424 B*15:570
HLA28430 B*15:571
HLA28449 B*15:572
HLA28901 B*15:573
HLA28927 B*15:574
HLA29083 B*15:576
HLA29085 B*15:577
HLA29098 B*15:578
HLA29099 B*15:579
HLA29103 B*15:580
HLA29131 B*15:581
HLA29205 B*15:582
HLA29473 B*15:583
HLA29404 B*15:585
HLA29803 B*15:586
HLA30123 B*15:587
HLA30095 B*15:588
HLA30119 B*15:589
HLA30330 B*15:590
HLA30090 B*15:591
HLA30613 B*15:592
HLA31128 B*15:593
HLA31063 B*15:594
HLA31019 B*15:595
HLA30917 B*15:597
HLA31209 B*15:598
HLA31753 B*15:599
HLA31816 B*15:600
HLA31449 B*15:601
HLA31718 B*15:602
HLA31683 B*15:603
HLA31684 B*15:605
HLA32099 B*15:606
HLA32137 B*15:607
HLA31885 B*15:608
HLA31884 B*15:609
HLA32155 B*15:610
HLA31919 B*15:611
HLA32197 B*15:612
HLA32470 B*15:613
HLA32396 B*15:614:01:01
HLA32423 B*15:615
HLA32570 B*15:616Q
HLA32609 B*15:617
HLA32350 B*15:618
HLA32551 B*15:619
HLA32548 B*15:620
HLA32311 B*15:621
HLA32750 B*15:622
HLA33254 B*15:623
HLA33404 B*15:624
HLA32747 B*15:625
HLA33668 B*15:626
HLA33550 B*15:627
HLA33511 B*15:628
HLA00213 B*18:01:01:01
HLA00214 B*18:02:01
HLA00215 B*18:03:01:01
HLA00216 B*18:04:01
HLA00217 B*18:05:01:01
HLA00218 B*18:06
HLA00219 B*18:07:01
HLA01055 B*18:08
HLA01131 B*18:09
HLA01177 B*18:10
HLA01270 B*18:11
HLA01281 B*18:12:01
HLA01353 B*18:13
HLA01506 B*18:14
HLA01508 B*18:15
HLA01613 B*18:18:01:01
HLA01782 B*18:19
HLA01914 B*18:20
HLA02315 B*18:21
HLA02388 B*18:22
HLA02699 B*18:24
HLA02783 B*18:25
HLA02851 B*18:26
HLA02995 B*18:27
HLA03180 B*18:28
HLA03263 B*18:29
HLA03462 B*18:30
HLA03463 B*18:31
HLA03510 B*18:32
HLA03612 B*18:33
HLA03717 B*18:34
HLA03946 B*18:35
HLA03956 B*18:36
HLA03957 B*18:37:01
HLA04088 B*18:38
HLA04091 B*18:39
HLA04106 B*18:40
HLA04202 B*18:41
HLA04205 B*18:42
HLA04212 B*18:43
HLA04222 B*18:44:01
HLA04223 B*18:45
HLA04445 B*18:46
HLA04510 B*18:47
HLA04752 B*18:48
HLA04805 B*18:49
HLA05125 B*18:50
HLA05485 B*18:51
HLA05508 B*18:52
HLA06063 B*18:53
HLA06135 B*18:54
HLA06185 B*18:55
HLA06213 B*18:56
HLA06214 B*18:57:01
HLA06232 B*18:58
HLA06243 B*18:59
HLA06322 B*18:60
HLA06575 B*18:61
HLA06581 B*18:62
HLA06660 B*18:63
HLA06825 B*18:64
HLA06927 B*18:65
HLA06995 B*18:66
HLA07189 B*18:67
HLA07303 B*18:68
HLA07632 B*18:69
HLA07679 B*18:70
HLA07809 B*18:71
HLA07904 B*18:72:01
HLA07905 B*18:73
HLA07907 B*18:75
HLA07908 B*18:76
HLA08335 B*18:77
HLA08336 B*18:78
HLA08392 B*18:79
HLA08403 B*18:80
HLA08438 B*18:81
HLA08506 B*18:82
HLA08663 B*18:83
HLA08936 B*18:84
HLA08982 B*18:85
HLA09077 B*18:86
HLA09345 B*18:87
HLA09427 B*18:88
HLA09428 B*18:89
HLA09513 B*18:90
HLA09556 B*18:91
HLA09885 B*18:92
HLA09889 B*18:93
HLA10403 B*18:95
HLA10697 B*18:96
HLA10908 B*18:97
HLA11007 B*18:98:01
HLA11008 B*18:99
HLA11229 B*18:100
HLA11230 B*18:101
HLA11419 B*18:102
HLA11421 B*18:103
HLA11651 B*18:104
HLA12460 B*18:105
HLA12661 B*18:106Q
HLA13348 B*18:107
HLA13323 B*18:108
HLA13468 B*18:109
HLA13652 B*18:110
HLA13653 B*18:111
HLA13654 B*18:112
HLA13709 B*18:113
HLA13794 B*18:114
HLA13795 B*18:115
HLA13796 B*18:116
HLA14434 B*18:117
HLA14435 B*18:118
HLA14423 B*18:119
HLA14484 B*18:120
HLA14868 B*18:121
HLA14888 B*18:122
HLA15033 B*18:123
HLA14946 B*18:124
HLA15167 B*18:125
HLA15152 B*18:126
HLA15267 B*18:127
HLA15545 B*18:128
HLA15546 B*18:129
HLA15614 B*18:130
HLA16353 B*18:131:01:01
HLA16474 B*18:132
HLA16475 B*18:133
HLA16618 B*18:134
HLA16864 B*18:135:01:01
HLA16997 B*18:136
HLA17211 B*18:137
HLA17494 B*18:139
HLA17627 B*18:140
HLA17644 B*18:141
HLA17651 B*18:142
HLA17830 B*18:143
HLA18537 B*18:144
HLA18371 B*18:145
HLA18843 B*18:146
HLA19031 B*18:147
HLA19084 B*18:148
HLA19164 B*18:149
HLA19331 B*18:150
HLA19513 B*18:151
HLA19412 B*18:152
HLA19559 B*18:153
HLA20503 B*18:155
HLA20230 B*18:156:01:01
HLA20419 B*18:157:01:01
HLA19956 B*18:158
HLA20700 B*18:159
HLA21127 B*18:160
HLA21920 B*18:161
HLA22146 B*18:162
HLA22476 B*18:163
HLA22600 B*18:164
HLA22494 B*18:165
HLA22444 B*18:166
HLA22232 B*18:167
HLA22743 B*18:168
HLA22782 B*18:169
HLA22951 B*18:170
HLA22979 B*18:171
HLA22830 B*18:172
HLA22986 B*18:173
HLA22950 B*18:174
HLA22803 B*18:175
HLA23368 B*18:176
HLA23105 B*18:177
HLA23392 B*18:178
HLA23678 B*18:179
HLA23324 B*18:180
HLA23498 B*18:181
HLA24101 B*18:183
HLA24108 B*18:184
HLA23846 B*18:185
HLA24999 B*18:186
HLA24579 B*18:187
HLA25774 B*18:188
HLA25940 B*18:189
HLA27108 B*18:190
HLA27109 B*18:191
HLA27338 B*18:192
HLA28010 B*18:193
HLA28026 B*18:194:01:01
HLA28073 B*18:195
HLA28819 B*18:196
HLA28839 B*18:197
HLA29068 B*18:198
HLA29111 B*18:199
HLA29256 B*18:200
HLA29379 B*18:201
HLA29910 B*18:202
HLA30582 B*18:203
HLA30598 B*18:204
HLA30827 B*18:205
HLA31132 B*18:206
HLA31160 B*18:207
HLA31175 B*18:208
HLA30908 B*18:209
HLA31457 B*18:210
HLA31469 B*18:211
HLA31779 B*18:212
HLA32047 B*18:213
HLA32086 B*18:214
HLA32120 B*18:215
HLA32331 B*18:216
HLA32336 B*18:217
HLA32631 B*18:218
HLA32923 B*18:219
HLA00220 B*27:01
HLA00221 B*27:02:01:01
HLA00222 B*27:03
HLA00223 B*27:04:01
HLA00225 B*27:05:02:01
HLA00227 B*27:06:01:01
HLA00228 B*27:07:01
HLA00229 B*27:08
HLA00230 B*27:09
HLA00231 B*27:10
HLA00232 B*27:11
HLA00233 B*27:12:01:01
HLA00234 B*27:13:01
HLA00235 B*27:14
HLA00236 B*27:15
HLA01056 B*27:16
HLA01130 B*27:17
HLA01143 B*27:18
HLA01147 B*27:19:01:01
HLA01173 B*27:20
HLA01277 B*27:21:01
HLA01348 B*27:23
HLA01504 B*27:24
HLA01529 B*27:25
HLA01952 B*27:26
HLA02023 B*27:27
HLA02118 B*27:28
HLA02171 B*27:29
HLA02238 B*27:30
HLA02301 B*27:31
HLA02370 B*27:32
HLA02437 B*27:33
HLA02473 B*27:34
HLA02499 B*27:35
HLA02513 B*27:36
HLA02784 B*27:37
HLA02931 B*27:38
HLA03176 B*27:39
HLA03200 B*27:40
HLA03276 B*27:41
HLA03278 B*27:42
HLA03323 B*27:43
HLA03551 B*27:44
HLA03554 B*27:45
HLA03616 B*27:46
HLA03659 B*27:47
HLA03661 B*27:48
HLA03677 B*27:49
HLA03712 B*27:50:01
HLA03810 B*27:51
HLA03824 B*27:52
HLA03952 B*27:53
HLA03955 B*27:54
HLA04048 B*27:55
HLA04053 B*27:56
HLA04089 B*27:57
HLA04175 B*27:58
HLA04443 B*27:60
HLA04449 B*27:61
HLA04564 B*27:62
HLA04715 B*27:63
HLA05404 B*27:67
HLA05268 B*27:68
HLA05269 B*27:69
HLA05473 B*27:70
HLA05492 B*27:71
HLA05504 B*27:72
HLA05517 B*27:73
HLA06183 B*27:74
HLA06212 B*27:75
HLA06230 B*27:76
HLA06255 B*27:77
HLA06256 B*27:78
HLA06292 B*27:79
HLA06353 B*27:80
HLA06940 B*27:81
HLA06993 B*27:82
HLA07187 B*27:83
HLA07188 B*27:84
HLA07177 B*27:85
HLA07339 B*27:86
HLA07441 B*27:87
HLA07631 B*27:88
HLA07689 B*27:89
HLA07902 B*27:90:01
HLA07903 B*27:91
HLA07932 B*27:92
HLA08327 B*27:93
HLA08331 B*27:95
HLA08332 B*27:96:01
HLA08472 B*27:97
HLA08504 B*27:98
HLA08662 B*27:99
HLA08911 B*27:100
HLA09308 B*27:101
HLA09309 B*27:102
HLA09326 B*27:103
HLA09426 B*27:104
HLA09452 B*27:105
HLA09703 B*27:106
HLA10159 B*27:107
HLA10402 B*27:108
HLA10468 B*27:109
HLA10470 B*27:110
HLA10698 B*27:111
HLA10699 B*27:112
HLA10700 B*27:113
HLA10701 B*27:114
HLA10702 B*27:115
HLA10703 B*27:116
HLA10705 B*27:117
HLA10906 B*27:118
HLA11002 B*27:119
HLA11003 B*27:120
HLA11004 B*27:121
HLA11006 B*27:122
HLA11225 B*27:123
HLA11227 B*27:124
HLA11200 B*27:125
HLA11648 B*27:126
HLA11649 B*27:127
HLA11729 B*27:128
HLA11818 B*27:129
HLA12037 B*27:130
HLA12072 B*27:131
HLA12473 B*27:132
HLA12441 B*27:133
HLA12658 B*27:134
HLA12659 B*27:135
HLA12979 B*27:136
HLA12980 B*27:137
HLA13328 B*27:138
HLA13465 B*27:139
HLA13466 B*27:140
HLA13651 B*27:141
HLA13741 B*27:142
HLA13854 B*27:143
HLA13760 B*27:144:01
HLA13966 B*27:145
HLA14292 B*27:146
HLA14630 B*27:147
HLA14925 B*27:148
HLA14854 B*27:149
HLA14871 B*27:150
HLA14978 B*27:151
HLA14979 B*27:152
HLA15264 B*27:153
HLA15265 B*27:154
HLA15736 B*27:155
HLA15565 B*27:156
HLA16245 B*27:157
HLA16256 B*27:158
HLA16470 B*27:159
HLA16471 B*27:160
HLA16611 B*27:161
HLA17407 B*27:162
HLA17434 B*27:163
HLA17492 B*27:164
HLA18037 B*27:165
HLA18062 B*27:166
HLA18081 B*27:167
HLA18132 B*27:168
HLA18149 B*27:169
HLA18233 B*27:170
HLA18241 B*27:171
HLA18171 B*27:172
HLA18363 B*27:173
HLA18369 B*27:174
HLA18557 B*27:175
HLA19495 B*27:177
HLA19664 B*27:178:01
HLA20005 B*27:179
HLA19995 B*27:180
HLA20498 B*27:181
HLA20443 B*27:182
HLA20985 B*27:183
HLA21488 B*27:184
HLA21247 B*27:185Q
HLA21260 B*27:186
HLA21262 B*27:187
HLA21286 B*27:188
HLA21990 B*27:189
HLA21986 B*27:190
HLA22081 B*27:191
HLA22184 B*27:192
HLA22000 B*27:193
HLA22192 B*27:194
HLA22195 B*27:195
HLA22562 B*27:196
HLA22209 B*27:197
HLA22868 B*27:198
HLA23000 B*27:199
HLA22982 B*27:200
HLA22825 B*27:201
HLA22832 B*27:202
HLA22834 B*27:203
HLA22961 B*27:204:01:01
HLA22841 B*27:205
HLA23785 B*27:206
HLA23343 B*27:207
HLA23444 B*27:208
HLA23264 B*27:209
HLA23044 B*27:210
HLA23272 B*27:211
HLA23129 B*27:213
HLA23466 B*27:214
HLA24787 B*27:216
HLA24495 B*27:217
HLA25522 B*27:218
HLA25613 B*27:219
HLA26067 B*27:220
HLA25596 B*27:221
HLA26287 B*27:222
HLA27061 B*27:224
HLA27339 B*27:226
HLA27734 B*27:227
HLA27736 B*27:228
HLA27762 B*27:229
HLA28016 B*27:230
HLA28046 B*27:231
HLA28071 B*27:232
HLA28256 B*27:233
HLA28906 B*27:234
HLA28907 B*27:235
HLA29071 B*27:236
HLA29095 B*27:237
HLA29132 B*27:238
HLA30117 B*27:239
HLA30465 B*27:240
HLA30128 B*27:241
HLA30699 B*27:242
HLA31015 B*27:244
HLA31386 B*27:245
HLA31685 B*27:247
HLA31486 B*27:248
HLA32122 B*27:249
HLA32542 B*27:250
HLA32432 B*27:251
HLA33247 B*27:252
HLA33181 B*27:253Q
HLA33566 B*27:255
HLA00237 B*35:01:01:01
HLA00238 B*35:02:01:01
HLA00239 B*35:03:01:01
HLA00240 B*35:04:01:01
HLA00241 B*35:05:01:01
HLA00242 B*35:06
HLA00243 B*35:07
HLA00244 B*35:08:01:01
HLA00245 B*35:09:01:01
HLA00247 B*35:10
HLA00248 B*35:11:01
HLA00249 B*35:12:01:01
HLA00250 B*35:13
HLA00251 B*35:14:01
HLA00252 B*35:15:01
HLA00253 B*35:16
HLA00254 B*35:17:01:01
HLA00255 B*35:18
HLA00256 B*35:19
HLA00257 B*35:20:01
HLA00258 B*35:21
HLA00259 B*35:22:01:01
HLA00260 B*35:23
HLA00261 B*35:24:01
HLA00262 B*35:25
HLA00263 B*35:26
HLA00264 B*35:27
HLA00981 B*35:28:01:01
HLA00982 B*35:29:01
HLA01057 B*35:30:01:01
HLA01058 B*35:31
HLA01059 B*35:32:01
HLA01060 B*35:33
HLA01194 B*35:34
HLA01202 B*35:35
HLA01296 B*35:36
HLA01314 B*35:37
HLA01503 B*35:38
HLA01509 B*35:39
HLA01563 B*35:41
HLA01578 B*35:42:01
HLA00185 B*35:43:01
HLA01182 B*35:44
HLA01668 B*35:45
HLA01727 B*35:46
HLA01846 B*35:47
HLA01850 B*35:48
HLA01888 B*35:49:01
HLA01896 B*35:50
HLA01897 B*35:51:01
HLA01984 B*35:52
HLA02016 B*35:54
HLA02031 B*35:55
HLA02038 B*35:56
HLA02091 B*35:57
HLA02128 B*35:58
HLA02134 B*35:59:01
HLA02228 B*35:60
HLA02251 B*35:61:01
HLA02385 B*35:62
HLA02399 B*35:63
HLA02402 B*35:64:01
HLA02411 B*35:65Q
HLA02480 B*35:66
HLA02489 B*35:67
HLA02645 B*35:68:01
HLA02694 B*35:69
HLA02734 B*35:70
HLA02756 B*35:71
HLA02763 B*35:72
HLA02810 B*35:74
HLA02847 B*35:75
HLA02909 B*35:76
HLA02977 B*35:77
HLA03003 B*35:78
HLA03008 B*35:79
HLA03078 B*35:80
HLA03084 B*35:81
HLA03125 B*35:82
HLA03126 B*35:83
HLA03149 B*35:84
HLA03169 B*35:85
HLA03197 B*35:86
HLA03198 B*35:87
HLA03210 B*35:88
HLA03300 B*35:89
HLA03321 B*35:90
HLA03324 B*35:91
HLA03335 B*35:92
HLA03336 B*35:93
HLA03343 B*35:94
HLA03625 B*35:95
HLA03662 B*35:96
HLA03644 B*35:97
HLA03722 B*35:98
HLA03715 B*35:99
HLA04900 B*35:100
HLA04904 B*35:101:01
HLA04864 B*35:102
HLA04907 B*35:103
HLA04910 B*35:104
HLA04911 B*35:105
HLA04913 B*35:106
HLA04914 B*35:107
HLA04916 B*35:108:01
HLA04919 B*35:109
HLA05063 B*35:110
HLA04922 B*35:111
HLA04923 B*35:112:01
HLA04882 B*35:113
HLA04932 B*35:114
HLA04936 B*35:115
HLA04938 B*35:116
HLA04941 B*35:117
HLA04866 B*35:118
HLA04946 B*35:119
HLA04960 B*35:120
HLA04961 B*35:121
HLA04962 B*35:122
HLA04963 B*35:123
HLA04965 B*35:124
HLA04967 B*35:125
HLA04978 B*35:126
HLA04980 B*35:127
HLA04992 B*35:128
HLA05009 B*35:131:01
HLA04867 B*35:132
HLA04872 B*35:133
HLA04879 B*35:135
HLA04888 B*35:136
HLA04892 B*35:137
HLA05047 B*35:138
HLA05051 B*35:139
HLA05056 B*35:140
HLA05058 B*35:141
HLA05059 B*35:142
HLA05060 B*35:143
HLA05061 B*35:144
HLA05713 B*35:146
HLA05814 B*35:147
HLA05826 B*35:148
HLA05828 B*35:149
HLA05830 B*35:150:01
HLA05835 B*35:151:01
HLA05955 B*35:152
HLA05983 B*35:153
HLA05997 B*35:154
HLA06057 B*35:155
HLA06134 B*35:156
HLA06239 B*35:157
HLA06261 B*35:158
HLA06266 B*35:159
HLA06278 B*35:160
HLA06376 B*35:161
HLA06574 B*35:162
HLA06648 B*35:163
HLA06684 B*35:164
HLA06686 B*35:166
HLA06815 B*35:167
HLA06884 B*35:168
HLA06929 B*35:169
HLA06935 B*35:170
HLA06945 B*35:171
HLA06946 B*35:172
HLA06962 B*35:174
HLA06964 B*35:175
HLA06977 B*35:176
HLA06987 B*35:177
HLA06999 B*35:178
HLA07196 B*35:179
HLA07197 B*35:180
HLA07198 B*35:181
HLA07202 B*35:182
HLA07212 B*35:183
HLA07302 B*35:184
HLA05274 B*35:185
HLA07325 B*35:186
HLA07452 B*35:187
HLA07549 B*35:188
HLA07560 B*35:189
HLA07645 B*35:190
HLA07646 B*35:191
HLA07651 B*35:192
HLA07692 B*35:193
HLA07701 B*35:194
HLA07703 B*35:195
HLA07706 B*35:196
HLA07719 B*35:197
HLA07769 B*35:198
HLA07780 B*35:199
HLA07796 B*35:200
HLA07914 B*35:201
HLA07927 B*35:202
HLA07939 B*35:203
HLA08062 B*35:204
HLA08063 B*35:205:01
HLA08108 B*35:206
HLA08316 B*35:207
HLA08319 B*35:208:01
HLA08344 B*35:209
HLA08354 B*35:210
HLA08356 B*35:211
HLA08397 B*35:212
HLA08359 B*35:213
HLA08360 B*35:214
HLA08361 B*35:215:01
HLA08499 B*35:217
HLA08507 B*35:218
HLA08785 B*35:219
HLA08804 B*35:220
HLA08990 B*35:221
HLA08991 B*35:222
HLA08993 B*35:223
HLA08994 B*35:224
HLA09003 B*35:225
HLA09098 B*35:226
HLA09139 B*35:227
HLA09435 B*35:228
HLA09436 B*35:229
HLA09464 B*35:230
HLA09504 B*35:231
HLA09709 B*35:232
HLA09697 B*35:233
HLA09897 B*35:234
HLA09898 B*35:235
HLA09899 B*35:236
HLA09900 B*35:237
HLA09901 B*35:238
HLA09912 B*35:239
HLA09922 B*35:240
HLA09923 B*35:241
HLA10409 B*35:242
HLA10410 B*35:243
HLA10471 B*35:244
HLA10472 B*35:245
HLA10473 B*35:246
HLA10508 B*35:247
HLA10516 B*35:248
HLA10881 B*35:249
HLA10886 B*35:250
HLA11020 B*35:251:01
HLA11027 B*35:252
HLA11326 B*35:253
HLA11470 B*35:254
HLA11720 B*35:255
HLA11821 B*35:256
HLA11826 B*35:257
HLA11830 B*35:258
HLA12008 B*35:259
HLA12131 B*35:260
HLA12235 B*35:261
HLA12279 B*35:262
HLA12316 B*35:263
HLA12402 B*35:264
HLA12428 B*35:265
HLA12479 B*35:266
HLA12488 B*35:267
HLA12565 B*35:268
HLA12487 B*35:269
HLA12689 B*35:270
HLA12691 B*35:271
HLA12692 B*35:272
HLA12707 B*35:273
HLA12747 B*35:274
HLA12748 B*35:275
HLA12750 B*35:276
HLA12751 B*35:277
HLA12757 B*35:278
HLA12877 B*35:279
HLA12976 B*35:280
HLA12996 B*35:281
HLA12998 B*35:282
HLA13176 B*35:283
HLA13180 B*35:284
HLA13345 B*35:285
HLA13356 B*35:286
HLA13476 B*35:287
HLA13477 B*35:288
HLA13538 B*35:289
HLA13547 B*35:290
HLA13497 B*35:291
HLA13506 B*35:292
HLA13621 B*35:293
HLA13657 B*35:294
HLA13658 B*35:295
HLA13707 B*35:296
HLA13800 B*35:297
HLA13764 B*35:298
HLA14008 B*35:299
HLA14097 B*35:300
HLA14299 B*35:301
HLA14302 B*35:302
HLA14303 B*35:303
HLA14304 B*35:304
HLA14200 B*35:305
HLA14201 B*35:306
HLA14405 B*35:307
HLA14436 B*35:308
HLA14437 B*35:309
HLA14438 B*35:310
HLA14443 B*35:311
HLA14731 B*35:312
HLA14684 B*35:313
HLA14813 B*35:314
HLA14931 B*35:315
HLA14992 B*35:316
HLA15262 B*35:317
HLA15275 B*35:318
HLA15279 B*35:319
HLA15281 B*35:320
HLA15292 B*35:321
HLA15161 B*35:322
HLA15540 B*35:323
HLA15549 B*35:324
HLA15556 B*35:325
HLA15558 B*35:326
HLA15559 B*35:327
HLA15411 B*35:328
HLA15790 B*35:329
HLA16029 B*35:330
HLA16040 B*35:331
HLA16354 B*35:332
HLA16487 B*35:333Q
HLA16488 B*35:334
HLA16612 B*35:335
HLA16816 B*35:336
HLA16888 B*35:337:01
HLA16889 B*35:338
HLA16999 B*35:339
HLA17000 B*35:340
HLA17001 B*35:341
HLA17002 B*35:342
HLA17089 B*35:343
HLA17212 B*35:344
HLA17319 B*35:345
HLA17333 B*35:346
HLA17408 B*35:347
HLA17453 B*35:348
HLA17499 B*35:349
HLA17748 B*35:350
HLA17845 B*35:351
HLA17847 B*35:352
HLA17848 B*35:353
HLA17850 B*35:354
HLA17851 B*35:355
HLA17852 B*35:356
HLA17855 B*35:357
HLA17865 B*35:358
HLA18061 B*35:359
HLA18041 B*35:360
HLA18173 B*35:361
HLA18175 B*35:362
HLA18176 B*35:363
HLA18343 B*35:364
HLA18411 B*35:365
HLA18419 B*35:366
HLA18425 B*35:367
HLA18451 B*35:368
HLA18546 B*35:369
HLA18559 B*35:370
HLA18835 B*35:371
HLA19143 B*35:372
HLA19267 B*35:373
HLA19270 B*35:374
HLA19256 B*35:375
HLA19477 B*35:376
HLA19201 B*35:377
HLA19545 B*35:378
HLA19556 B*35:379
HLA19903 B*35:380:01:01
HLA19819 B*35:382
HLA19718 B*35:383
HLA19604 B*35:384
HLA20466 B*35:385
HLA20472 B*35:386
HLA20094 B*35:387
HLA20400 B*35:388
HLA20409 B*35:389
HLA20221 B*35:391
HLA20211 B*35:392
HLA20451 B*35:393
HLA20139 B*35:394
HLA20225 B*35:395
HLA20116 B*35:396
HLA20889 B*35:397
HLA20538 B*35:398
HLA21071 B*35:399
HLA20695 B*35:400
HLA20568 B*35:401
HLA20723 B*35:402
HLA20599 B*35:403
HLA20664 B*35:404
HLA21010 B*35:405
HLA21263 B*35:406
HLA21389 B*35:407
HLA21378 B*35:408
HLA21404 B*35:409
HLA21291 B*35:410
HLA21249 B*35:411
HLA21349 B*35:412
HLA21534 B*35:413
HLA21948 B*35:414
HLA22164 B*35:415
HLA22090 B*35:416
HLA22148 B*35:417
HLA22112 B*35:418
HLA22040 B*35:419
HLA21984 B*35:420
HLA22187 B*35:421
HLA22161 B*35:422
HLA22043 B*35:423
HLA22080 B*35:424
HLA21962 B*35:425
HLA21936 B*35:426
HLA22359 B*35:428Q
HLA22322 B*35:429
HLA22559 B*35:431
HLA22301 B*35:432
HLA22603 B*35:433
HLA22485 B*35:434
HLA22723 B*35:435
HLA22760 B*35:436
HLA22990 B*35:437
HLA22813 B*35:438
HLA22861 B*35:439:01:01
HLA22877 B*35:440
HLA23247 B*35:441
HLA23102 B*35:442
HLA23307 B*35:443
HLA23403 B*35:444
HLA23065 B*35:445
HLA23339 B*35:446
HLA23424 B*35:447
HLA23189 B*35:449
HLA23640 B*35:450
HLA23398 B*35:451
HLA23077 B*35:452
HLA23387 B*35:454
HLA23151 B*35:455
HLA23926 B*35:457
HLA24044 B*35:458
HLA24056 B*35:460Q
HLA24938 B*35:462
HLA26010 B*35:463
HLA25896 B*35:464
HLA25827 B*35:465
HLA25818 B*35:466
HLA26280 B*35:467
HLA26223 B*35:468
HLA26348 B*35:469
HLA26231 B*35:470
HLA26802 B*35:471
HLA26845 B*35:472
HLA27070 B*35:473
HLA27080 B*35:474
HLA27099 B*35:475
HLA27100 B*35:476
HLA27260 B*35:477
HLA26994 B*35:478
HLA27739 B*35:479
HLA27743 B*35:480
HLA27777 B*35:481
HLA27780 B*35:482
HLA28020 B*35:483
HLA28056 B*35:484:01
HLA28058 B*35:485
HLA28072 B*35:486
HLA28074 B*35:487
HLA28083 B*35:488
HLA28085 B*35:489
HLA28384 B*35:490
HLA28257 B*35:491
HLA28350 B*35:492
HLA28452 B*35:493
HLA28769 B*35:494
HLA28831 B*35:495
HLA28845 B*35:496
HLA29160 B*35:497
HLA29174 B*35:498
HLA29072 B*35:499
HLA29127 B*35:500
HLA29300 B*35:501
HLA29254 B*35:502
HLA29585 B*35:503
HLA29481 B*35:504
HLA29412 B*35:505
HLA29407 B*35:506
HLA30360 B*35:509
HLA29911 B*35:510
HLA30589 B*35:511
HLA30648 B*35:512
HLA30738 B*35:514
HLA30748 B*35:515
HLA30654 B*35:516
HLA30649 B*35:517
HLA30766 B*35:518
HLA30862 B*35:519
HLA31002 B*35:520
HLA31077 B*35:521
HLA31133 B*35:522
HLA31211 B*35:523
HLA31647 B*35:524
HLA31659 B*35:525
HLA31628 B*35:526
HLA31652 B*35:527
HLA31622 B*35:528
HLA31650 B*35:529
HLA31914 B*35:530
HLA32015 B*35:531
HLA31995 B*35:532
HLA32204 B*35:533
HLA32361 B*35:534
HLA32366 B*35:535
HLA32576 B*35:536
HLA32308 B*35:537
HLA32578 B*35:538
HLA32579 B*35:539
HLA32373 B*35:540
HLA32621 B*35:541
HLA33454 B*35:543
HLA32782 B*35:544
HLA33687 B*35:545
HLA33555 B*35:546
HLA33748 B*35:547
HLA00265 B*37:01:01:01
HLA00266 B*37:02
HLA01346 B*37:04:01
HLA01359 B*37:05
HLA01949 B*37:06:01
HLA02007 B*37:07
HLA02015 B*37:08
HLA02149 B*37:09
HLA02231 B*37:10
HLA02479 B*37:11
HLA02532 B*37:12
HLA02874 B*37:13
HLA03350 B*37:14
HLA03959 B*37:15
HLA04073 B*37:16Q
HLA04208 B*37:17
HLA04229 B*37:18
HLA04160 B*37:19:01
HLA04511 B*37:20
HLA04539 B*37:21
HLA04692 B*37:22:01
HLA05421 B*37:23
HLA05487 B*37:24
HLA05719 B*37:25
HLA06182 B*37:26
HLA06231 B*37:27
HLA06257 B*37:28
HLA06321 B*37:29
HLA06941 B*37:31
HLA07552 B*37:32
HLA07931 B*37:34
HLA08334 B*37:35
HLA08337 B*37:36
HLA08779 B*37:37
HLA09886 B*37:38
HLA09887 B*37:39
HLA09888 B*37:40
HLA09891 B*37:41
HLA10475 B*37:43
HLA10647 B*37:44
HLA10706 B*37:45
HLA10707 B*37:46
HLA10474 B*37:47
HLA11228 B*37:48
HLA11420 B*37:49
HLA11650 B*37:50
HLA11747 B*37:51
HLA12175 B*37:52
HLA12267 B*37:53
HLA12660 B*37:54
HLA13008 B*37:55
HLA13742 B*37:56
HLA14142 B*37:57
HLA14390 B*37:58
HLA15266 B*37:59
HLA15543 B*37:60
HLA15544 B*37:61
HLA16219 B*37:62
HLA16239 B*37:63
HLA16250 B*37:64
HLA16473 B*37:65
HLA17086 B*37:66
HLA17094 B*37:67
HLA17409 B*37:68
HLA18036 B*37:69
HLA18039 B*37:70
HLA18138 B*37:71
HLA19250 B*37:72
HLA19772 B*37:73
HLA20040 B*37:74
HLA20085 B*37:75
HLA20424 B*37:76
HLA20792 B*37:77
HLA20942 B*37:78
HLA21431 B*37:80
HLA22116 B*37:81
HLA22253 B*37:83
HLA22623 B*37:84
HLA22247 B*37:85
HLA22695 B*37:87
HLA22758 B*37:88
HLA22824 B*37:89
HLA23653 B*37:90
HLA24802 B*37:91
HLA27573 B*37:93
HLA27798 B*37:94
HLA28903 B*37:95
HLA30910 B*37:96
HLA31603 B*37:97
HLA31954 B*37:98
HLA31888 B*37:99
HLA32492 B*37:100
HLA32399 B*37:101
HLA32310 B*37:102
HLA00267 B*38:01:01:01
HLA00268 B*38:02:01:01
HLA00270 B*38:03
HLA01137 B*38:04
HLA01219 B*38:05
HLA01265 B*38:06
HLA01294 B*38:07
HLA01515 B*38:08
HLA01655 B*38:09
HLA01923 B*38:10
HLA02161 B*38:11
HLA02394 B*38:12
HLA02504 B*38:13
HLA02584 B*38:14
HLA02714 B*38:15
HLA02806 B*38:16
HLA03051 B*38:17
HLA03590 B*38:18
HLA03694 B*38:19
HLA04076 B*38:20:01
HLA04439 B*38:21
HLA04475 B*38:22
HLA05301 B*38:23
HLA05519 B*38:24
HLA05712 B*38:25
HLA05843 B*38:26
HLA06242 B*38:27
HLA06316 B*38:28
HLA06326 B*38:29
HLA06585 B*38:30
HLA06692 B*38:31
HLA06830 B*38:32
HLA06834 B*38:33
HLA06991 B*38:35
HLA07211 B*38:36
HLA07310 B*38:37
HLA07470 B*38:38
HLA07718 B*38:39
HLA07720 B*38:40
HLA08389 B*38:41
HLA08390 B*38:42
HLA09131 B*38:43
HLA10050 B*38:44
HLA10051 B*38:45
HLA10477 B*38:46
HLA10478 B*38:47
HLA10637 B*38:48
HLA10709 B*38:49
HLA10710 B*38:50
HLA11249 B*38:51
HLA11334 B*38:52
HLA11453 B*38:53
HLA11844 B*38:54
HLA12407 B*38:55Q
HLA12571 B*38:56
HLA13463 B*38:57
HLA13999 B*38:58
HLA14240 B*38:59
HLA14603 B*38:60
HLA14736 B*38:61
HLA15289 B*38:62
HLA15290 B*38:63
HLA15645 B*38:64
HLA15973 B*38:65
HLA16616 B*38:66
HLA16936 B*38:67
HLA17410 B*38:68L
HLA18366 B*38:69
HLA18442 B*38:70
HLA19170 B*38:71
HLA19249 B*38:72
HLA19196 B*38:73
HLA19747 B*38:74
HLA20456 B*38:75
HLA20197 B*38:76
HLA20393 B*38:77
HLA20356 B*38:78
HLA20184 B*38:79
HLA21418 B*38:81
HLA21478 B*38:82
HLA23266 B*38:84
HLA23564 B*38:85
HLA23742 B*38:86
HLA30855 B*38:87
HLA30840 B*38:88
HLA30895 B*38:89
HLA31115 B*38:90
HLA31490 B*38:91
HLA31619 B*38:92
HLA31944 B*38:93
HLA31929 B*38:94
HLA32532 B*38:95
HLA32770 B*38:96
HLA32673 B*38:97
HLA33845 B*38:98
HLA24054 B*38:160
HLA24258 B*38:161
HLA23908 B*38:162
HLA26092 B*38:163
HLA26376 B*38:164
HLA26804 B*38:166
HLA26992 B*38:167
HLA28068 B*38:168
HLA28630 B*38:169
HLA29122 B*38:170
HLA29392 B*38:171
HLA30632 B*38:172
HLA30787 B*38:173Q
HLA00271 B*39:01:01:01
HLA00274 B*39:02:01:01
HLA00276 B*39:03:01:01
HLA00277 B*39:04
HLA00278 B*39:05:01:01
HLA00279 B*39:06:01:01
HLA00281 B*39:07
HLA00282 B*39:08
HLA00283 B*39:09:01:01
HLA00284 B*39:10:01
HLA00285 B*39:11
HLA00286 B*39:12:01:01
HLA00287 B*39:13:01
HLA00288 B*39:14:01:01
HLA00289 B*39:15
HLA00290 B*39:16
HLA01061 B*39:17
HLA01128 B*39:18
HLA01133 B*39:19:01
HLA01183 B*39:20
HLA01196 B*39:22
HLA01203 B*39:23
HLA01221 B*39:24:01
HLA01528 B*39:26
HLA01656 B*39:27
HLA01789 B*39:28
HLA01920 B*39:29
HLA01924 B*39:30
HLA01926 B*39:31:01:01
HLA01927 B*39:32
HLA02097 B*39:33
HLA02163 B*39:34
HLA02331 B*39:35
HLA02378 B*39:36
HLA02384 B*39:37:01:01
HLA02412 B*39:38Q
HLA02426 B*39:39:01
HLA02457 B*39:41
HLA02926 B*39:42
HLA03006 B*39:43
HLA03338 B*39:44
HLA03341 B*39:45
HLA03542 B*39:46
HLA03621 B*39:47
HLA03647 B*39:48
HLA03747 B*39:49
HLA03756 B*39:50
HLA04072 B*39:51
HLA04105 B*39:52
HLA04200 B*39:53
HLA04161 B*39:54
HLA04451 B*39:55
HLA04472 B*39:56
HLA04796 B*39:57
HLA05275 B*39:58
HLA05276 B*39:59
HLA05292 B*39:60
HLA05511 B*39:61
HLA05714 B*39:62
HLA06271 B*39:63
HLA06938 B*39:64
HLA06951 B*39:65
HLA06952 B*39:66
HLA06953 B*39:67
HLA07307 B*39:68
HLA07472 B*39:69
HLA07663 B*39:70
HLA07664 B*39:71
HLA07665 B*39:72
HLA07726 B*39:73
HLA08140 B*39:74
HLA08142 B*39:75
HLA08322 B*39:76
HLA08412 B*39:77
HLA08469 B*39:78
HLA08524 B*39:79
HLA09010 B*39:80
HLA09011 B*39:81
HLA09173 B*39:82
HLA09570 B*39:83:01
HLA10422 B*39:84
HLA10480 B*39:85
HLA10481 B*39:86
HLA10874 B*39:88
HLA11038 B*39:89
HLA11436 B*39:90
HLA11450 B*39:91
HLA11454 B*39:92
HLA11718 B*39:93
HLA11842 B*39:94
HLA11845 B*39:96
HLA12314 B*39:98
HLA12490 B*39:99
HLA12764 B*39:100
HLA12981 B*39:101
HLA13024 B*39:102
HLA13185 B*39:103
HLA13400 B*39:104
HLA13546 B*39:105
HLA13799 B*39:106
HLA13979 B*39:107
HLA14238 B*39:108
HLA14239 B*39:109
HLA14241 B*39:110
HLA14449 B*39:111
HLA14450 B*39:112
HLA14452 B*39:113
HLA14474 B*39:114
HLA14616 B*39:115
HLA14942 B*39:117
HLA15469 B*39:118
HLA15396 B*39:119
HLA15643 B*39:120
HLA15773 B*39:121
HLA16220 B*39:122
HLA16230 B*39:123
HLA16507 B*39:124
HLA16508 B*39:125
HLA16617 B*39:126
HLA16760 B*39:127
HLA16885 B*39:128
HLA17570 B*39:129
HLA17574 B*39:130
HLA17870 B*39:131
HLA18253 B*39:132
HLA18581 B*39:134
HLA19169 B*39:135
HLA19153 B*39:136
HLA19492 B*39:137
HLA19815 B*39:138
HLA20500 B*39:140
HLA20413 B*39:141
HLA21397 B*39:143
HLA21972 B*39:144
HLA21942 B*39:145
HLA22767 B*39:148
HLA22673 B*39:149
HLA22784 B*39:150Q
HLA22912 B*39:151
HLA22920 B*39:152
HLA22976 B*39:153
HLA22845 B*39:154
HLA22953 B*39:155
HLA24751 B*39:156
HLA25226 B*39:158
HLA26058 B*39:159
HLA25626 B*39:160
HLA26275 B*39:162
HLA27039 B*39:163
HLA27048 B*39:164
HLA27754 B*39:165
HLA28014 B*39:166
HLA28017 B*39:167
HLA28034 B*39:168
HLA28861 B*39:169
HLA29113 B*39:170
HLA23571 B*39:171
HLA23701 B*39:172
HLA23764 B*39:173
HLA23078 B*39:174
HLA31689 B*39:176
HLA31488 B*39:177
HLA31623 B*39:178
HLA31680 B*39:179
HLA31986 B*39:180
HLA31873 B*39:181
HLA31845 B*39:182
HLA32515 B*39:183
HLA32337 B*39:184
HLA32288 B*39:185
HLA32850 B*39:186
HLA32728 B*39:187
HLA00291 B*40:01:01
HLA00293 B*40:02:01:01
HLA00294 B*40:03:01:01
HLA00295 B*40:04:01:01
HLA00296 B*40:05:01:01
HLA00297 B*40:06:01:01
HLA00298 B*40:07
HLA00299 B*40:08:01:01
HLA00300 B*40:09
HLA00301 B*40:10:01:01
HLA00302 B*40:11:01:01
HLA00303 B*40:12:01
HLA00304 B*40:13
HLA00305 B*40:14:01
HLA00306 B*40:15
HLA00307 B*40:16:01:01
HLA00309 B*40:18
HLA00310 B*40:19
HLA00311 B*40:20:01:01
HLA00983 B*40:21
HLA01062 B*40:23
HLA01063 B*40:24
HLA01064 B*40:25
HLA01122 B*40:26
HLA01129 B*40:27:01
HLA01140 B*40:28
HLA01223 B*40:29
HLA01232 B*40:30
HLA01246 B*40:31
HLA01269 B*40:32
HLA01287 B*40:33
HLA01299 B*40:34
HLA01329 B*40:35:01
HLA01482 B*40:36
HLA01488 B*40:37
HLA01490 B*40:38
HLA01495 B*40:39
HLA01510 B*40:40
HLA01527 B*40:42
HLA01600 B*40:43
HLA01604 B*40:44
HLA01702 B*40:45
HLA01740 B*40:46
HLA01748 B*40:47
HLA01765 B*40:48
HLA01898 B*40:49
HLA01899 B*40:50:01:01
HLA01919 B*40:51
HLA01976 B*40:52
HLA01979 B*40:53
HLA01992 B*40:54
HLA01993 B*40:55
HLA01994 B*40:56
HLA01995 B*40:57
HLA02217 B*40:58
HLA02227 B*40:59
HLA02229 B*40:60
HLA02249 B*40:61
HLA02383 B*40:62
HLA02458 B*40:63
HLA02482 B*40:64:01:01
HLA02498 B*40:65
HLA02536 B*40:66
HLA02588 B*40:67
HLA02597 B*40:68
HLA02678 B*40:69
HLA02693 B*40:70:01
HLA02799 B*40:71
HLA02850 B*40:72:01
HLA02864 B*40:73
HLA02866 B*40:74
HLA02884 B*40:75
HLA02906 B*40:76
HLA02913 B*40:77
HLA02989 B*40:78
HLA03160 B*40:79
HLA03173 B*40:80
HLA03205 B*40:81
HLA03220 B*40:82
HLA03222 B*40:83
HLA03231 B*40:84
HLA03243 B*40:85
HLA03245 B*40:86
HLA03256 B*40:87:01
HLA03270 B*40:88
HLA03311 B*40:89
HLA03312 B*40:90
HLA03339 B*40:91
HLA03392 B*40:92
HLA03403 B*40:93
HLA03584 B*40:94
HLA03628 B*40:95
HLA03602 B*40:96
HLA03746 B*40:97
HLA03780 B*40:98
HLA04387 B*40:99
HLA04901 B*40:100
HLA04902 B*40:101
HLA04903 B*40:102
HLA04912 B*40:103
HLA04915 B*40:104
HLA04917 B*40:105
HLA04918 B*40:106
HLA04920 B*40:107
HLA05153 B*40:108
HLA04930 B*40:109
HLA04880 B*40:110
HLA04934 B*40:111
HLA04937 B*40:112
HLA04939 B*40:113
HLA04940 B*40:114:01:01
HLA04947 B*40:115
HLA04977 B*40:116
HLA04979 B*40:117
HLA05010 B*40:119
HLA05011 B*40:120
HLA05018 B*40:121
HLA05021 B*40:122
HLA04868 B*40:123
HLA05151 B*40:124:01
HLA05152 B*40:125:01
HLA04873 B*40:126
HLA04875 B*40:127
HLA04877 B*40:128
HLA04878 B*40:129
HLA04881 B*40:130:01
HLA05050 B*40:131
HLA05053 B*40:132
HLA05054 B*40:133Q
HLA05093 B*40:134
HLA05096 B*40:135
HLA05097 B*40:136
HLA05154 B*40:137
HLA05277 B*40:138
HLA05279 B*40:139
HLA05281 B*40:140
HLA05282 B*40:141
HLA05285 B*40:143
HLA05305 B*40:145
HLA05363 B*40:146
HLA05410 B*40:147
HLA05537 B*40:148
HLA05695 B*40:149
HLA05803 B*40:150
HLA05805 B*40:151
HLA05811 B*40:152
HLA05816 B*40:153
HLA05824 B*40:154
HLA05856 B*40:156
HLA05859 B*40:157
HLA05866 B*40:158
HLA06025 B*40:159
HLA06228 B*40:160:01
HLA06281 B*40:161
HLA06302 B*40:162
HLA06314 B*40:163
HLA06653 B*40:164
HLA06681 B*40:165
HLA06693 B*40:166
HLA06887 B*40:167
HLA06914 B*40:168
HLA06915 B*40:169
HLA06939 B*40:170
HLA06972 B*40:171
HLA06982 B*40:172
HLA06983 B*40:173
HLA07095 B*40:174
HLA07285 B*40:175
HLA07286 B*40:176
HLA07304 B*40:177
HLA07332 B*40:178
HLA07378 B*40:179
HLA07384 B*40:180
HLA07440 B*40:181
HLA07625 B*40:182
HLA07626 B*40:183
HLA07629 B*40:184
HLA07680 B*40:185
HLA07681 B*40:186:01
HLA07682 B*40:187
HLA07684 B*40:188
HLA07685 B*40:189
HLA07686 B*40:190
HLA07728 B*40:191
HLA07754 B*40:192
HLA07762 B*40:193
HLA07890 B*40:194
HLA07891 B*40:195
HLA07893 B*40:196
HLA07894 B*40:197
HLA07895 B*40:198
HLA07896 B*40:199
HLA07897 B*40:200
HLA07898 B*40:201
HLA07899 B*40:202
HLA07900 B*40:203
HLA07919 B*40:204
HLA07920 B*40:205
HLA07921 B*40:206
HLA07962 B*40:207
HLA08101 B*40:208
HLA08102 B*40:209
HLA08105 B*40:210
HLA08106 B*40:211
HLA08112 B*40:212
HLA08315 B*40:213
HLA08287 B*40:214
HLA08296 B*40:215
HLA08323 B*40:217
HLA08326 B*40:218
HLA08353 B*40:219
HLA08396 B*40:220
HLA08407 B*40:221
HLA08577 B*40:222
HLA08579 B*40:223
HLA08658 B*40:224
HLA08659 B*40:225:01
HLA08660 B*40:226
HLA08879 B*40:227
HLA08884 B*40:228
HLA08928 B*40:229
HLA08931 B*40:230
HLA08976 B*40:231
HLA08978 B*40:232
HLA09101 B*40:233
HLA09423 B*40:234
HLA09425 B*40:235
HLA09457 B*40:236
HLA09461 B*40:237
HLA09475 B*40:238
HLA09483 B*40:239
HLA09555 B*40:240
HLA09564 B*40:241
HLA09565 B*40:242
HLA09655 B*40:243
HLA09700 B*40:244
HLA09702 B*40:245:01
HLA09704 B*40:246
HLA09904 B*40:247
HLA09911 B*40:248
HLA10157 B*40:249
HLA10458 B*40:250
HLA10482 B*40:251
HLA10483 B*40:252
HLA10485 B*40:253
HLA10486 B*40:254
HLA10487 B*40:255
HLA10653 B*40:257
HLA10715 B*40:258
HLA10717 B*40:259
HLA10718 B*40:260
HLA10719 B*40:261
HLA10720 B*40:262
HLA10724 B*40:264
HLA10726 B*40:266
HLA10728 B*40:267
HLA10729 B*40:268
HLA10731 B*40:269
HLA10732 B*40:270
HLA10870 B*40:271
HLA10890 B*40:272
HLA10997 B*40:273
HLA10998 B*40:274
HLA11000 B*40:275
HLA11001 B*40:276
HLA11084 B*40:277
HLA11086 B*40:278
HLA11319 B*40:279
HLA11320 B*40:280
HLA11417 B*40:281
HLA11418 B*40:282
HLA11455 B*40:283
HLA11479 B*40:284
HLA11484 B*40:285
HLA11721 B*40:287
HLA11813 B*40:288
HLA11814 B*40:289
HLA11815 B*40:290
HLA11817 B*40:292
HLA12000 B*40:293
HLA12126 B*40:294
HLA12128 B*40:295
HLA12264 B*40:296
HLA12617 B*40:297
HLA12655 B*40:298:01
HLA12911 B*40:299
HLA13175 B*40:300
HLA13199 B*40:301
HLA13207 B*40:302
HLA13250 B*40:303
HLA13353 B*40:304
HLA13397 B*40:305
HLA13384 B*40:306
HLA13509 B*40:307
HLA13738 B*40:308
HLA13740 B*40:309
HLA13850 B*40:310
HLA13852 B*40:311
HLA13963 B*40:312
HLA13965 B*40:313
HLA13767 B*40:314
HLA13980 B*40:315
HLA13989 B*40:316
HLA14109 B*40:317
HLA14242 B*40:318
HLA14293 B*40:319
HLA14296 B*40:320
HLA14229 B*40:321
HLA14383 B*40:322
HLA14386 B*40:323:01
HLA14417 B*40:324
HLA14445 B*40:325
HLA14480 B*40:326
HLA14493 B*40:327
HLA14726 B*40:328
HLA14698 B*40:329
HLA14823 B*40:330
HLA14924 B*40:331
HLA14858 B*40:332
HLA14879 B*40:333
HLA14981 B*40:334:01
HLA14982 B*40:335
HLA15260 B*40:336
HLA15538 B*40:339
HLA15541 B*40:340
HLA15542 B*40:341
HLA15567 B*40:342
HLA15582 B*40:343
HLA15600 B*40:344
HLA16257 B*40:346
HLA16266 B*40:347
HLA16466 B*40:348
HLA16468 B*40:349
HLA16469 B*40:350
HLA16472 B*40:351
HLA16610 B*40:352
HLA16834 B*40:353:01:01
HLA16884 B*40:354
HLA16996 B*40:355
HLA17190 B*40:356
HLA17214 B*40:357
HLA17320 B*40:358
HLA17438 B*40:359
HLA17490 B*40:360
HLA17827 B*40:362
HLA17828 B*40:363
HLA17829 B*40:364
HLA17854 B*40:365
HLA18282 B*40:366
HLA18361 B*40:367
HLA18426 B*40:368
HLA18437 B*40:369
HLA18445 B*40:370
HLA19180 B*40:371
HLA19288 B*40:373
HLA19236 B*40:374
HLA19582 B*40:375
HLA19480 B*40:376
HLA19425 B*40:377
HLA19507 B*40:378
HLA19460 B*40:379
HLA19275 B*40:380
HLA19544 B*40:381:01
HLA19380 B*40:382
HLA19675 B*40:383
HLA19742 B*40:384
HLA19948 B*40:385
HLA19943 B*40:386
HLA19929 B*40:387
HLA20386 B*40:388
HLA20034 B*40:389
HLA20497 B*40:390
HLA20062 B*40:391
HLA20408 B*40:392
HLA20087 B*40:393
HLA20339 B*40:394
HLA20208 B*40:395
HLA20234 B*40:396
HLA20018 B*40:397
HLA20452 B*40:398
HLA20357 B*40:400
HLA20616 B*40:401
HLA20745 B*40:402
HLA20732 B*40:403
HLA20771 B*40:404
HLA20726 B*40:405
HLA20582 B*40:406
HLA21521 B*40:407
HLA21515 B*40:408
HLA21362 B*40:409
HLA21401 B*40:410
HLA21281 B*40:411
HLA21536 B*40:412
HLA21484 B*40:413
HLA21342 B*40:414
HLA22079 B*40:415
HLA22004 B*40:416
HLA22067 B*40:417
HLA22105 B*40:418
HLA22156 B*40:419
HLA22632 B*40:420
HLA22258 B*40:421Q
HLA22538 B*40:422
HLA22396 B*40:423
HLA22436 B*40:424
HLA22254 B*40:425
HLA22583 B*40:427
HLA22550 B*40:429
HLA22755 B*40:430
HLA22754 B*40:431
HLA22958 B*40:432
HLA22865 B*40:433
HLA22923 B*40:434
HLA23702 B*40:435
HLA23259 B*40:436
HLA23320 B*40:437
HLA23152 B*40:439
HLA23955 B*40:440
HLA23874 B*40:441
HLA24270 B*40:442
HLA24264 B*40:443
HLA24368 B*40:444
HLA24386 B*40:445
HLA24514 B*40:446
HLA26000 B*40:447
HLA25734 B*40:448
HLA25788 B*40:449
HLA26258 B*40:450
HLA26455 B*40:451
HLA27095 B*40:452
HLA27731 B*40:453
HLA27742 B*40:454
HLA27558 B*40:455
HLA28029 B*40:456
HLA28038 B*40:457
HLA28049 B*40:458
HLA28050 B*40:459
HLA28053 B*40:460
HLA28064 B*40:461
HLA28222 B*40:462
HLA28624 B*40:463
HLA28642 B*40:464
HLA28617 B*40:465
HLA28863 B*40:466
HLA28830 B*40:467
HLA29012 B*40:468
HLA29077 B*40:469
HLA29091 B*40:470
HLA29094 B*40:471
HLA29124 B*40:472
HLA29261 B*40:473
HLA29435 B*40:474
HLA29480 B*40:475:01
HLA29816 B*40:476
HLA30351 B*40:477
HLA30301 B*40:478
HLA30102 B*40:479
HLA30367 B*40:480
HLA30778 B*40:482
HLA31257 B*40:484
HLA31322 B*40:485
HLA31223 B*40:486
HLA31513 B*40:489
HLA31743 B*40:490
HLA31626 B*40:491
HLA31614 B*40:492
HLA31826 B*40:493
HLA31806 B*40:494
HLA31697 B*40:495
HLA32151 B*40:496
HLA32045 B*40:497
HLA32073 B*40:498
HLA31967 B*40:499
HLA32123 B*40:500
HLA32590 B*40:501
HLA32295 B*40:502
HLA32415 B*40:503
HLA32316 B*40:504
HLA32351 B*40:505
HLA33564 B*40:509Q
HLA00312 B*41:01:01:01
HLA00313 B*41:02:01:01
HLA00314 B*41:03:01
HLA01256 B*41:04
HLA01288 B*41:05
HLA01452 B*41:06
HLA02144 B*41:07
HLA02300 B*41:08
HLA03905 B*41:09
HLA04094 B*41:10
HLA04236 B*41:11
HLA04247 B*41:12
HLA05505 B*41:13
HLA05538 B*41:14
HLA05533 B*41:15
HLA05833 B*41:16
HLA06059 B*41:17
HLA06252 B*41:18
HLA06694 B*41:19
HLA07624 B*41:20
HLA08290 B*41:21
HLA08502 B*41:22
HLA08654 B*41:23
HLA08655 B*41:24
HLA08657 B*41:25
HLA08975 B*41:26
HLA09310 B*41:27
HLA09554 B*41:28
HLA09881 B*41:29
HLA10400 B*41:30
HLA10401 B*41:31
HLA10995 B*41:32
HLA11741 B*41:33
HLA12562 B*41:34
HLA12727 B*41:35
HLA12978 B*41:36
HLA13398 B*41:37
HLA13736 B*41:38
HLA13737 B*41:39
HLA13994 B*41:40
HLA14195 B*41:41
HLA14295 B*41:42
HLA14217 B*41:43
HLA14228 B*41:44
HLA14723 B*41:46
HLA15552 B*41:47
HLA15581 B*41:48
HLA15610 B*41:49
HLA16334 B*41:50
HLA16881 B*41:51
HLA16882 B*41:52
HLA17826 B*41:53
HLA18035 B*41:54
HLA18139 B*41:55
HLA19847 B*41:56Q
HLA22051 B*41:57
HLA21995 B*41:58
HLA22007 B*41:59
HLA22541 B*41:60
HLA22791 B*41:61
HLA22860 B*41:62
HLA23439 B*41:63
HLA26253 B*41:64
HLA28045 B*41:65
HLA28088 B*41:66
HLA29064 B*41:67
HLA29107 B*41:68
HLA30199 B*41:69
HLA30873 B*41:70
HLA31405 B*41:71
HLA31229 B*41:72
HLA31165 B*41:73
HLA31282 B*41:74
HLA33706 B*41:75
HLA00315 B*42:01:01:01
HLA00316 B*42:02:01:01
HLA01524 B*42:04
HLA01712 B*42:05:01
HLA01941 B*42:06
HLA02311 B*42:07
HLA02390 B*42:08
HLA02643 B*42:09
HLA03645 B*42:10
HLA03823 B*42:11
HLA03945 B*42:12
HLA04168 B*42:13
HLA05308 B*42:14
HLA06223 B*42:15
HLA06286 B*42:16:01
HLA07959 B*42:17
HLA08981 B*42:18
HLA09314 B*42:19
HLA09313 B*42:20
HLA13541 B*42:21
HLA14236 B*42:22
HLA15286 B*42:23
HLA15583 B*42:24
HLA18344 B*42:25
HLA22206 B*42:26
HLA22922 B*42:27
HLA26683 B*42:28
HLA30110 B*42:29
HLA31035 B*42:30
HLA31747 B*42:31
HLA33578 B*42:32
HLA00318 B*44:02:01:01
HLA00319 B*44:03:01:01
HLA00321 B*44:04
HLA00322 B*44:05:01:01
HLA00323 B*44:06
HLA00324 B*44:07
HLA00325 B*44:08
HLA00326 B*44:09
HLA00327 B*44:10
HLA00328 B*44:11
HLA01065 B*44:12
HLA01066 B*44:13
HLA01067 B*44:14
HLA01068 B*44:15:01:01
HLA01146 B*44:16
HLA01148 B*44:17
HLA01144 B*44:18:01:01
HLA01195 B*44:20
HLA01197 B*44:21
HLA01313 B*44:22
HLA01354 B*44:24
HLA01427 B*44:25
HLA01449 B*44:26
HLA01489 B*44:27:01:01
HLA01521 B*44:28:01
HLA01526 B*44:29
HLA01530 B*44:30
HLA01569 B*44:31
HLA01617 B*44:32
HLA01691 B*44:33
HLA01700 B*44:34:01
HLA01713 B*44:35
HLA01784 B*44:36
HLA01790 B*44:37:01
HLA01797 B*44:38
HLA01804 B*44:39
HLA01986 B*44:40
HLA02098 B*44:41:01
HLA02206 B*44:42
HLA02234 B*44:43:01
HLA02309 B*44:44
HLA02316 B*44:45
HLA02343 B*44:46:01
HLA02464 B*44:47
HLA02644 B*44:48
HLA02675 B*44:49
HLA02695 B*44:50:01
HLA02700 B*44:51
HLA02883 B*44:53:01
HLA02941 B*44:54
HLA03001 B*44:55
HLA03133 B*44:57
HLA03190 B*44:59:01
HLA03259 B*44:60
HLA03358 B*44:62
HLA03359 B*44:63
HLA03360 B*44:64:01
HLA03536 B*44:65
HLA03601 B*44:66
HLA03627 B*44:67
HLA03718 B*44:68
HLA03695 B*44:69:01
HLA03903 B*44:70
HLA03950 B*44:71
HLA03962 B*44:72
HLA03973 B*44:73
HLA03974 B*44:74
HLA04044 B*44:75
HLA04056 B*44:76
HLA04082 B*44:77
HLA04085 B*44:78
HLA04086 B*44:79:01
HLA04096 B*44:80
HLA04014 B*44:81
HLA04022 B*44:82
HLA04111 B*44:83
HLA04173 B*44:84:01
HLA04194 B*44:85:01
HLA04215 B*44:86
HLA04224 B*44:87
HLA04228 B*44:88
HLA04455 B*44:89
HLA04460 B*44:90
HLA04501 B*44:91
HLA04514 B*44:92
HLA04519 B*44:93
HLA04526 B*44:94
HLA04536 B*44:95
HLA04540 B*44:96
HLA04541 B*44:97
HLA04542 B*44:98
HLA04556 B*44:99
HLA04994 B*44:100
HLA04889 B*44:101
HLA05048 B*44:102
HLA05049 B*44:103
HLA05052 B*44:104
HLA05055 B*44:105
HLA05057 B*44:106
HLA05062 B*44:107
HLA05099 B*44:109
HLA05406 B*44:110
HLA05534 B*44:111
HLA05717 B*44:112
HLA05829 B*44:113
HLA05858 B*44:114
HLA05877 B*44:115
HLA05926 B*44:116
HLA06045 B*44:117
HLA06156 B*44:118
HLA06216 B*44:119
HLA06218 B*44:120
HLA06237 B*44:121
HLA06244 B*44:122
HLA06245 B*44:123
HLA06246 B*44:124
HLA06247 B*44:125
HLA06265 B*44:126:01
HLA06301 B*44:127
HLA06323 B*44:128:01
HLA06578 B*44:129
HLA06642 B*44:130
HLA06954 B*44:131
HLA06976 B*44:132
HLA07087 B*44:133
HLA06986 B*44:134
HLA07090 B*44:135
HLA07193 B*44:136
HLA07194 B*44:137
HLA07343 B*44:138Q
HLA07388 B*44:139
HLA07447 B*44:140
HLA07448 B*44:141
HLA07449 B*44:142
HLA07451 B*44:143
HLA07640 B*44:144
HLA07642 B*44:145
HLA07696 B*44:146
HLA07697 B*44:147
HLA07698 B*44:148
HLA07767 B*44:150
HLA07808 B*44:151
HLA07812 B*44:152
HLA08060 B*44:153
HLA08061 B*44:154
HLA08131 B*44:155
HLA08342 B*44:156
HLA08348 B*44:157
HLA08349 B*44:158
HLA08351 B*44:159
HLA08432 B*44:160Q
HLA08511 B*44:161
HLA08672 B*44:162
HLA08674 B*44:163:01
HLA08683 B*44:164
HLA08687 B*44:165
HLA08809 B*44:166
HLA08937 B*44:167
HLA08984 B*44:168
HLA08985 B*44:169
HLA08986 B*44:170
HLA08988 B*44:172
HLA09169 B*44:173
HLA09305 B*44:174
HLA09432 B*44:175
HLA09559 B*44:176
HLA09594 B*44:177
HLA09595 B*44:178
HLA09696 B*44:179
HLA09706 B*44:180
HLA09711 B*44:181
HLA10143 B*44:182
HLA10153 B*44:183
HLA10265 B*44:184
HLA10406 B*44:185
HLA10407 B*44:186:01
HLA10533 B*44:187
HLA10992 B*44:188
HLA11015 B*44:189
HLA11016 B*44:190
HLA11017 B*44:191
HLA11237 B*44:192:01
HLA11325 B*44:193
HLA11656 B*44:194:01
HLA11658 B*44:196
HLA11824 B*44:197
HLA11836 B*44:199
HLA12003 B*44:200
HLA12006 B*44:201
HLA11981 B*44:202
HLA12085 B*44:203:01
HLA12130 B*44:204:01
HLA12270 B*44:205:01
HLA12272 B*44:206
HLA12273 B*44:207
HLA12274 B*44:208
HLA12275 B*44:209
HLA12276 B*44:210:01
HLA12404 B*44:211
HLA12424 B*44:212
HLA12426 B*44:213
HLA12665 B*44:214
HLA12991 B*44:215
HLA12995 B*44:216
HLA13346 B*44:218
HLA13473 B*44:219
HLA13396 B*44:220
HLA13539 B*44:221
HLA13655 B*44:222
HLA13656 B*44:223
HLA13787 B*44:224
HLA13790 B*44:225
HLA14005 B*44:226
HLA14007 B*44:227
HLA14018 B*44:228
HLA14079 B*44:229
HLA14082 B*44:230
HLA14141 B*44:231
HLA14146 B*44:232
HLA14147 B*44:233
HLA14148 B*44:234
HLA14301 B*44:235
HLA14409 B*44:236
HLA14475 B*44:238
HLA14730 B*44:239
HLA14815 B*44:240
HLA14929 B*44:241
HLA14930 B*44:242
HLA14877 B*44:243
HLA14983 B*44:244
HLA14991 B*44:245
HLA15270 B*44:247
HLA15273 B*44:248
HLA15284 B*44:249
HLA15465 B*44:250
HLA15466 B*44:251
HLA15553 B*44:252
HLA15554 B*44:253
HLA15555 B*44:254
HLA15613 B*44:255
HLA15877 B*44:256
HLA15878 B*44:257
HLA15879 B*44:258
HLA15963 B*44:259
HLA16242 B*44:260
HLA16263 B*44:261
HLA16022 B*44:262
HLA16479 B*44:263
HLA16480 B*44:264
HLA16481 B*44:265
HLA16501 B*44:266:01
HLA17088 B*44:268
HLA17067 B*44:269
HLA17411 B*44:270:01
HLA17495 B*44:271
HLA17839 B*44:272
HLA17840 B*44:273
HLA17841 B*44:274
HLA17842 B*44:275
HLA17843 B*44:276
HLA17786 B*44:277
HLA18150 B*44:278
HLA18347 B*44:279
HLA18348 B*44:280
HLA18441 B*44:281:01
HLA18447 B*44:282
HLA18572 B*44:283
HLA18973 B*44:284
HLA19071 B*44:285
HLA19125 B*44:286
HLA19144 B*44:287
HLA19062 B*44:288
HLA19552 B*44:289
HLA19554 B*44:290
HLA19377 B*44:291
HLA19834 B*44:292
HLA19807 B*44:293
HLA19619 B*44:294
HLA19680 B*44:295:01
HLA20037 B*44:296
HLA20277 B*44:297
HLA21113 B*44:298
HLA20614 B*44:299
HLA21016 B*44:300
HLA21222 B*44:301
HLA21555 B*44:302:01:01
HLA21193 B*44:304
HLA21430 B*44:305
HLA21312 B*44:307
HLA21498 B*44:308
HLA21528 B*44:311
HLA21167 B*44:312
HLA21218 B*44:313
HLA21246 B*44:315
HLA21388 B*44:316
HLA21444 B*44:317
HLA21582 B*44:318
HLA21361 B*44:319
HLA21428 B*44:320
HLA21532 B*44:321
HLA21571 B*44:322
HLA21354 B*44:323
HLA21537 B*44:324
HLA21592 B*44:325
HLA21524 B*44:326
HLA21471 B*44:327
HLA21449 B*44:329
HLA21275 B*44:330
HLA21204 B*44:331
HLA21467 B*44:332
HLA22016 B*44:335
HLA22083 B*44:336
HLA22077 B*44:337
HLA22068 B*44:338
HLA21959 B*44:339
HLA22648 B*44:340
HLA22334 B*44:342
HLA22565 B*44:343
HLA22540 B*44:344
HLA22487 B*44:346
HLA22676 B*44:437
HLA22906 B*44:439
HLA22839 B*44:440
HLA22899 B*44:441
HLA22903 B*44:442
HLA22925 B*44:443
HLA22881 B*44:444
HLA22828 B*44:445
HLA22852 B*44:446
HLA22891 B*44:447
HLA22888 B*44:450
HLA22965 B*44:451
HLA22985 B*44:452
HLA22967 B*44:453
HLA22829 B*44:454
HLA23041 B*44:455
HLA23224 B*44:456
HLA23670 B*44:457
HLA23418 B*44:458
HLA23650 B*44:459
HLA23512 B*44:460
HLA23118 B*44:461
HLA23672 B*44:462
HLA23796 B*44:463
HLA23585 B*44:464:01:01
HLA23963 B*44:465
HLA23974 B*44:467
HLA23852 B*44:468
HLA24303 B*44:469
HLA24165 B*44:470
HLA23983 B*44:471
HLA24217 B*44:472
HLA23953 B*44:473
HLA23920 B*44:474
HLA23914 B*44:475
HLA23896 B*44:476
HLA25363 B*44:477
HLA25469 B*44:478
HLA25780 B*44:479
HLA25604 B*44:480Q
HLA26096 B*44:481
HLA26381 B*44:482
HLA26690 B*44:483
HLA27094 B*44:484
HLA27097 B*44:485
HLA27104 B*44:486
HLA27247 B*44:487
HLA27259 B*44:488
HLA27746 B*44:489
HLA28012 B*44:490
HLA28037 B*44:491
HLA28040 B*44:492
HLA28397 B*44:493
HLA28629 B*44:494
HLA28913 B*44:495
HLA28842 B*44:496
HLA29121 B*44:497
HLA29269 B*44:498
HLA29279 B*44:499
HLA29635 B*44:500
HLA29561 B*44:501
HLA29569 B*44:502
HLA29627 B*44:503
HLA29485 B*44:504
HLA30442 B*44:505
HLA30155 B*44:506
HLA30096 B*44:507
HLA29913 B*44:508
HLA29908 B*44:509
HLA30581 B*44:510
HLA30584 B*44:511
HLA30529 B*44:513
HLA31370 B*44:514:01
HLA31154 B*44:515
HLA31097 B*44:516
HLA31016 B*44:517
HLA31026 B*44:518
HLA31460 B*44:519
HLA31812 B*44:520
HLA31735 B*44:521
HLA31817 B*44:522
HLA31596 B*44:524
HLA32097 B*44:526
HLA32044 B*44:527
HLA32006 B*44:528
HLA31983 B*44:529
HLA32025 B*44:530
HLA32364 B*44:531
HLA32301 B*44:532
HLA32582 B*44:533
HLA32296 B*44:534
HLA32456 B*44:535
HLA32452 B*44:536
HLA32455 B*44:537
HLA32314 B*44:538
HLA32547 B*44:539
HLA32599 B*44:540
HLA32330 B*44:541
HLA33230 B*44:542
HLA33286 B*44:543
HLA33752 B*44:545
HLA33833 B*44:546
HLA00329 B*45:01:01:01
HLA00330 B*45:02
HLA01229 B*45:03
HLA01343 B*45:04
HLA01419 B*45:05
HLA01607 B*45:06
HLA01940 B*45:07
HLA03258 B*45:08
HLA03299 B*45:09
HLA04051 B*45:10
HLA04481 B*45:11
HLA05304 B*45:12
HLA05825 B*45:13
HLA07683 B*45:14
HLA12657 B*45:15
HLA13735 B*45:16
HLA13964 B*45:17
HLA14294 B*45:18
HLA15388 B*45:19
HLA16929 B*45:20
HLA17628 B*45:21
HLA19157 B*45:22
HLA19089 B*45:23
HLA21322 B*45:24
HLA22098 B*45:25
HLA28924 B*45:27
HLA00331 B*46:01:01:01
HLA01139 B*46:02
HLA01977 B*46:03
HLA01980 B*46:04
HLA02211 B*46:05
HLA02296 B*46:06
HLA02336 B*46:08
HLA02736 B*46:09
HLA02808 B*46:10
HLA02905 B*46:11
HLA03086 B*46:12
HLA03249 B*46:13:01
HLA03271 B*46:14
HLA03361 B*46:16
HLA03442 B*46:17
HLA03512 B*46:18
HLA03778 B*46:19
HLA03909 B*46:20
HLA03966 B*46:21:01
HLA04163 B*46:22
HLA05287 B*46:23
HLA05412 B*46:24
HLA05812 B*46:25
HLA05813 B*46:26
HLA06313 B*46:27
HLA06889 B*46:28
HLA07280 B*46:29
HLA07306 B*46:30
HLA07961 B*46:31
HLA08314 B*46:32:01
HLA08247 B*46:33
HLA08285 B*46:34
HLA08398 B*46:35
HLA08587 B*46:36
HLA08563 B*46:37
HLA08805 B*46:38
HLA09488 B*46:39
HLA09583 B*46:40:01
HLA09821 B*46:42
HLA10033 B*46:43
HLA10459 B*46:44
HLA10489 B*46:45
HLA10736 B*46:46
HLA10738 B*46:47
HLA10739 B*46:48
HLA10740 B*46:49
HLA10741 B*46:50
HLA10742 B*46:51Q
HLA10743 B*46:52
HLA10745 B*46:53
HLA10749 B*46:54
HLA10746 B*46:56
HLA10750 B*46:57
HLA10917 B*46:58
HLA12009 B*46:59
HLA12070 B*46:60
HLA12286 B*46:61
HLA12287 B*46:62
HLA12288 B*46:63
HLA13373 B*46:64
HLA14492 B*46:65
HLA14627 B*46:66
HLA14957 B*46:67
HLA15156 B*46:68
HLA15634 B*46:69
HLA15779 B*46:70
HLA16051 B*46:71
HLA17181 B*46:72
HLA17861 B*46:73
HLA18112 B*46:74
HLA20519 B*46:75
HLA22070 B*46:76
HLA22952 B*46:77
HLA22957 B*46:78
HLA24750 B*46:80
HLA26069 B*46:81
HLA28260 B*46:82
HLA28427 B*46:83
HLA28862 B*46:84
HLA29684 B*46:85
HLA29686 B*46:86
HLA29388 B*46:87
HLA31271 B*46:88
HLA31408 B*46:89
HLA31655 B*46:90
HLA31620 B*46:91
HLA32610 B*46:92
HLA32567 B*46:93
HLA32612 B*46:94
HLA01437 B*47:01:01:02
HLA00333 B*47:02
HLA00334 B*47:03
HLA01481 B*47:04
HLA01953 B*47:05
HLA04709 B*47:06
HLA04790 B*47:07
HLA06219 B*47:08
HLA10528 B*47:09
HLA12994 B*47:10
HLA31253 B*47:11
HLA31767 B*47:12
HLA00335 B*48:01:01:01
HLA00336 B*48:02:01
HLA00337 B*48:03:01:01
HLA00338 B*48:04:01:01
HLA00339 B*48:05
HLA00986 B*48:06
HLA01069 B*48:07
HLA01777 B*48:08
HLA01981 B*48:09
HLA01982 B*48:10
HLA02104 B*48:11
HLA02112 B*48:12
HLA02200 B*48:13
HLA02377 B*48:14
HLA02503 B*48:15
HLA02517 B*48:16
HLA02952 B*48:17
HLA02965 B*48:18
HLA03020 B*48:19
HLA04245 B*48:20
HLA04433 B*48:21
HLA04750 B*48:22
HLA05288 B*48:23
HLA05475 B*48:24
HLA06130 B*48:25
HLA07209 B*48:26
HLA07210 B*48:27
HLA08143 B*48:28
HLA08903 B*48:29
HLA09087 B*48:30
HLA09505 B*48:31
HLA09908 B*48:32
HLA10421 B*48:33
HLA10491 B*48:34
HLA11716 B*48:35
HLA12018 B*48:36
HLA13021 B*48:37
HLA14316 B*48:38
HLA14985 B*48:39
HLA14996 B*48:40
HLA15642 B*48:41
HLA17640 B*48:42
HLA17654 B*48:43
HLA18354 B*48:44
HLA18435 B*48:45
HLA18574 B*48:46
HLA19590 B*48:47
HLA21001 B*48:48
HLA22172 B*48:49
HLA22400 B*48:50
HLA31788 B*48:51
HLA31890 B*48:52
HLA32261 B*48:53
HLA00340 B*49:01:01:01
HLA01252 B*49:02
HLA01266 B*49:03
HLA02209 B*49:04:01
HLA02342 B*49:05:01
HLA04098 B*49:06
HLA04128 B*49:07
HLA04535 B*49:08
HLA04538 B*49:09
HLA04706 B*49:10
HLA05484 B*49:11
HLA05496 B*49:12
HLA05498 B*49:13
HLA05722 B*49:14
HLA06227 B*49:16
HLA06352 B*49:17
HLA06891 B*49:18:01
HLA06932 B*49:20
HLA07958 B*49:21
HLA08122 B*49:22
HLA08324 B*49:23
HLA08606 B*49:24
HLA08670 B*49:25
HLA09167 B*49:26
HLA10505 B*49:27
HLA10639 B*49:28:01
HLA11415 B*49:29
HLA11416 B*49:30
HLA11445 B*49:31
HLA12232 B*49:32
HLA12261 B*49:33
HLA12599 B*49:34
HLA12643 B*49:35
HLA12974 B*49:36
HLA12975 B*49:37
HLA13402 B*49:38
HLA13389 B*49:39
HLA13962 B*49:40
HLA14433 B*49:41
HLA14724 B*49:42
HLA15030 B*49:43
HLA15539 B*49:44
HLA15616 B*49:45
HLA15961 B*49:46
HLA16609 B*49:47:01
HLA17085 B*49:48
HLA18351 B*49:49
HLA18450 B*49:50
HLA19235 B*49:51
HLA19265 B*49:52
HLA19468 B*49:53
HLA19217 B*49:54
HLA19730 B*49:55
HLA20421 B*49:56
HLA20154 B*49:57
HLA20144 B*49:58
HLA20107 B*49:59
HLA22284 B*49:61
HLA22522 B*49:62
HLA22719 B*49:63
HLA23154 B*49:64
HLA25880 B*49:65
HLA26728 B*49:66
HLA26843 B*49:67
HLA28011 B*49:68
HLA28253 B*49:69
HLA29527 B*49:70
HLA30086 B*49:71
HLA29894 B*49:72
HLA30752 B*49:73
HLA32119 B*49:74
HLA32490 B*49:75
HLA32290 B*49:76
HLA00341 B*50:01:01:01
HLA00342 B*50:02:01:01
HLA01070 B*50:04:01
HLA04049 B*50:05
HLA04108 B*50:06
HLA04180 B*50:07
HLA04182 B*50:08
HLA04239 B*50:09
HLA05466 B*50:10
HLA05470 B*50:11
HLA05499 B*50:12
HLA06238 B*50:13
HLA06835 B*50:14
HLA07186 B*50:15
HLA07627 B*50:16
HLA07968 B*50:17
HLA08559 B*50:18
HLA08656 B*50:19
HLA08894 B*50:20
HLA08977 B*50:31
HLA09316 B*50:32
HLA09818 B*50:33
HLA09910 B*50:34
HLA10399 B*50:35
HLA10520 B*50:36
HLA10755 B*50:37
HLA10894 B*50:38
HLA12125 B*50:39
HLA12560 B*50:40
HLA12561 B*50:41
HLA12645 B*50:42
HLA13540 B*50:43
HLA14601 B*50:44
HLA14923 B*50:45
HLA15259 B*50:46
HLA15261 B*50:47
HLA15579 B*50:48
HLA15949 B*50:49
HLA16331 B*50:50
HLA16836 B*50:51
HLA16995 B*50:52
HLA17491 B*50:53
HLA17572 B*50:54
HLA18170 B*50:55
HLA19394 B*50:56
HLA19743 B*50:57
HLA20132 B*50:58
HLA20309 B*50:59
HLA21554 B*50:60
HLA21317 B*50:61
HLA22113 B*50:62
HLA22074 B*50:63
HLA22846 B*50:64
HLA24516 B*50:65
HLA24942 B*50:66
HLA25276 B*50:67
HLA25700 B*50:68
HLA25653 B*50:69
HLA28018 B*50:70
HLA28785 B*50:71
HLA29187 B*50:73
HLA29199 B*50:74
HLA31177 B*50:75
HLA31999 B*50:76
HLA32345 B*50:77
HLA32354 B*50:78
HLA33727 B*50:79
HLA00344 B*51:01:01:01
HLA00346 B*51:02:01:01
HLA00348 B*51:03
HLA00349 B*51:04:01
HLA00350 B*51:05:01:01
HLA00351 B*51:06:01:01
HLA00352 B*51:07:01
HLA00353 B*51:08:01:01
HLA00354 B*51:09:01
HLA00355 B*51:10
HLA00357 B*51:12
HLA00358 B*51:13:01
HLA00359 B*51:14
HLA00360 B*51:15
HLA00361 B*51:16
HLA01071 B*51:17
HLA01072 B*51:18
HLA01073 B*51:19
HLA01132 B*51:20
HLA01134 B*51:21
HLA01243 B*51:22
HLA01245 B*51:23
HLA01262 B*51:24:01
HLA01417 B*51:26
HLA01537 B*51:28
HLA01568 B*51:29
HLA01621 B*51:30
HLA01626 B*51:31
HLA01657 B*51:32
HLA01676 B*51:33
HLA01678 B*51:34
HLA01983 B*51:35
HLA02003 B*51:36
HLA02020 B*51:37
HLA02167 B*51:38
HLA02297 B*51:39
HLA02419 B*51:40:01
HLA02558 B*51:42
HLA02620 B*51:43
HLA02672 B*51:45
HLA02754 B*51:46
HLA02885 B*51:48
HLA02933 B*51:49
HLA03099 B*51:50
HLA03123 B*51:51
HLA03178 B*51:52
HLA03277 B*51:53
HLA03279 B*51:54
HLA03282 B*51:55
HLA03313 B*51:56:01
HLA03355 B*51:57
HLA03456 B*51:58
HLA03460 B*51:59
HLA03465 B*51:60
HLA03468 B*51:61:01
HLA03516 B*51:62
HLA03509 B*51:63:01
HLA03608 B*51:64
HLA03617 B*51:65
HLA03665 B*51:66
HLA03674 B*51:67
HLA03676 B*51:68
HLA03716 B*51:69
HLA03719 B*51:70
HLA03901 B*51:71
HLA03971 B*51:72
HLA03972 B*51:73
HLA04045 B*51:74
HLA04080 B*51:75
HLA04102 B*51:76
HLA04104 B*51:77
HLA04015 B*51:78:01
HLA04199 B*51:79
HLA04204 B*51:80
HLA04225 B*51:81
HLA04231 B*51:82
HLA04251 B*51:83
HLA04166 B*51:84
HLA04441 B*51:85
HLA04444 B*51:86
HLA04495 B*51:87
HLA04537 B*51:88
HLA04649 B*51:89
HLA04704 B*51:90
HLA04705 B*51:91
HLA04711 B*51:92:01
HLA04716 B*51:93
HLA04718 B*51:94
HLA04791 B*51:95
HLA05289 B*51:96
HLA05464 B*51:97
HLA05488 B*51:99
HLA05495 B*51:100
HLA05536 B*51:101
HLA05694 B*51:102
HLA05840 B*51:103
HLA05806 B*51:104:01
HLA05836 B*51:105
HLA05912 B*51:106:01
HLA05959 B*51:107
HLA06269 B*51:108
HLA06270 B*51:109
HLA06365 B*51:111
HLA06369 B*51:112
HLA06579 B*51:113
HLA06675 B*51:114
HLA06676 B*51:115
HLA06698 B*51:116
HLA06701 B*51:117
HLA06959 B*51:119
HLA06969 B*51:120
HLA07001 B*51:121
HLA07002 B*51:122
HLA07180 B*51:123
HLA07181 B*51:124
HLA07204 B*51:125
HLA07308 B*51:126
HLA07461 B*51:127
HLA07462 B*51:128
HLA07623 B*51:129
HLA07714 B*51:130
HLA07715 B*51:131
HLA07960 B*51:132
HLA07964 B*51:133
HLA08076 B*51:134
HLA08077 B*51:135
HLA08078 B*51:136
HLA08130 B*51:137
HLA08374 B*51:138
HLA08375 B*51:139
HLA08377 B*51:140
HLA08391 B*51:141
HLA08414 B*51:142
HLA08436 B*51:143
HLA08568 B*51:144
HLA08653 B*51:145
HLA08681 B*51:146
HLA08682 B*51:147
HLA08780 B*51:148
HLA09001 B*51:150
HLA09317 B*51:151
HLA09441 B*51:152
HLA09489 B*51:153
HLA09582 B*51:154
HLA10492 B*51:155
HLA10493 B*51:156
HLA10494 B*51:157
HLA10517 B*51:158:01
HLA10655 B*51:159
HLA10660 B*51:160
HLA10756 B*51:161
HLA10759 B*51:162:01
HLA10763 B*51:163
HLA10768 B*51:164
HLA10754 B*51:165
HLA10757 B*51:166
HLA10991 B*51:167
HLA11031 B*51:168
HLA11052 B*51:169
HLA11330 B*51:170
HLA11433 B*51:171
HLA11443 B*51:172
HLA11480 B*51:173Q
HLA11717 B*51:174:01
HLA11722 B*51:175
HLA11731 B*51:176
HLA11835 B*51:177
HLA11949 B*51:179
HLA12278 B*51:180
HLA12301 B*51:181
HLA12302 B*51:182
HLA12304 B*51:183
HLA12606 B*51:185
HLA13010 B*51:186
HLA13027 B*51:187
HLA13338 B*51:188
HLA13350 B*51:189
HLA13487 B*51:190
HLA14017 B*51:191
HLA13983 B*51:192
HLA13998 B*51:193:01
HLA14155 B*51:194
HLA14157 B*51:195
HLA14310 B*51:196
HLA14311 B*51:197
HLA14312 B*51:198
HLA14380 B*51:199
HLA14412 B*51:200
HLA14618 B*51:201
HLA14814 B*51:202
HLA15034 B*51:203
HLA14987 B*51:204:01
HLA14988 B*51:205
HLA14989 B*51:206
HLA15283 B*51:207
HLA15392 B*51:208
HLA15399 B*51:209
HLA15739 B*51:210
HLA15970 B*51:211
HLA15971 B*51:212
HLA15972 B*51:213
HLA16241 B*51:214
HLA16478 B*51:215
HLA16500 B*51:216
HLA16615 B*51:217
HLA16759 B*51:218
HLA16745 B*51:219
HLA16819 B*51:220
HLA16877 B*51:221
HLA17005 B*51:222
HLA17006 B*51:223
HLA17213 B*51:224
HLA17433 B*51:225
HLA17455 B*51:226
HLA17864 B*51:227
HLA17991 B*51:228
HLA18092 B*51:229
HLA18270 B*51:230:01:01
HLA18179 B*51:231
HLA18412 B*51:232:01
HLA18434 B*51:233
HLA18438 B*51:234
HLA19112 B*51:236
HLA19439 B*51:237:01
HLA19244 B*51:238
HLA19649 B*51:239
HLA19798 B*51:240
HLA19609 B*51:241
HLA19781 B*51:242
HLA19733 B*51:243
HLA19882 B*51:244
HLA20346 B*51:246
HLA20390 B*51:247
HLA20243 B*51:248
HLA20431 B*51:249
HLA20353 B*51:250
HLA19994 B*51:251
HLA20401 B*51:252
HLA19972 B*51:253
HLA20192 B*51:254
HLA20021 B*51:255
HLA20970 B*51:257
HLA20758 B*51:258
HLA20904 B*51:259
HLA20763 B*51:260
HLA21006 B*51:261
HLA20542 B*51:262
HLA20686 B*51:263
HLA21465 B*51:265
HLA21500 B*51:266
HLA21270 B*51:267
HLA22137 B*51:268
HLA22024 B*51:269
HLA22006 B*51:270
HLA21977 B*51:271
HLA22173 B*51:272
HLA22290 B*51:274
HLA22403 B*51:275
HLA22643 B*51:276
HLA22368 B*51:277
HLA22268 B*51:278
HLA22761 B*51:279
HLA22762 B*51:280
HLA22725 B*51:281
HLA22826 B*51:282
HLA22883 B*51:283
HLA22930 B*51:284
HLA23578 B*51:285
HLA23658 B*51:286
HLA23459 B*51:288
HLA23714 B*51:289
HLA23700 B*51:290
HLA23109 B*51:291
HLA23235 B*51:292
HLA23818 B*51:293
HLA23318 B*51:294
HLA23416 B*51:295
HLA23060 B*51:296
HLA24122 B*51:297
HLA24153 B*51:298
HLA23994 B*51:299
HLA24329 B*51:300
HLA24311 B*51:301
HLA24062 B*51:302
HLA24343 B*51:303
HLA24453 B*51:304
HLA25617 B*51:305
HLA25719 B*51:307
HLA26286 B*51:308
HLA26576 B*51:309
HLA26636 B*51:310
HLA27091 B*51:311
HLA27093 B*51:312
HLA26951 B*51:314
HLA27276 B*51:315
HLA27728 B*51:316
HLA27735 B*51:317
HLA27755 B*51:319
HLA27768 B*51:320
HLA27578 B*51:321
HLA28399 B*51:322
HLA28898 B*51:323
HLA29011 B*51:324
HLA29086 B*51:326
HLA29126 B*51:327
HLA29299 B*51:328
HLA29675 B*51:329Q
HLA29451 B*51:330
HLA29583 B*51:331
HLA29402 B*51:332
HLA30385 B*51:333
HLA30401 B*51:334
HLA29876 B*51:335
HLA29885 B*51:336
HLA30686 B*51:337
HLA30696 B*51:338
HLA30782 B*51:339
HLA31011 B*51:340
HLA31135 B*51:341
HLA31192 B*51:342
HLA31344 B*51:343
HLA31759 B*51:345
HLA32098 B*51:346Q
HLA31957 B*51:347
HLA31936 B*51:348
HLA32016 B*51:349
HLA31962 B*51:350
HLA32005 B*51:351
HLA32093 B*51:352
HLA32195 B*51:353
HLA32483 B*51:354
HLA32569 B*51:355
HLA32344 B*51:356
HLA32594 B*51:358
HLA00362 B*52:01:01:01
HLA01141 B*52:02:01
HLA01295 B*52:03
HLA01580 B*52:04
HLA01627 B*52:05
HLA01964 B*52:06:01
HLA02196 B*52:07:01
HLA02212 B*52:08
HLA02452 B*52:09:01
HLA02585 B*52:10:01
HLA02793 B*52:11:01
HLA03293 B*52:12
HLA03317 B*52:13
HLA03354 B*52:14:01
HLA03970 B*52:15
HLA04162 B*52:16
HLA04450 B*52:17
HLA04459 B*52:18
HLA04498 B*52:19
HLA04733 B*52:20
HLA05223 B*52:21:01
HLA05497 B*52:22
HLA06026 B*52:23
HLA06355 B*52:24
HLA06963 B*52:25:01
HLA07000 B*52:26
HLA07336 B*52:27
HLA07823 B*52:28
HLA07800 B*52:29
HLA08064 B*52:30
HLA08363 B*52:31:01
HLA09913 B*52:32
HLA10674 B*52:33
HLA10758 B*52:34
HLA10760 B*52:35
HLA10762 B*52:36
HLA11022 B*52:37
HLA11327 B*52:38
HLA11427 B*52:39
HLA11732 B*52:40
HLA12480 B*52:41
HLA12440 B*52:42
HLA12688 B*52:43
HLA12868 B*52:44
HLA13197 B*52:45
HLA13231 B*52:46
HLA13474 B*52:47
HLA13478 B*52:48
HLA13613 B*52:50
HLA13851 B*52:51
HLA14010 B*52:52
HLA14000 B*52:53
HLA14092 B*52:54
HLA14150 B*52:55
HLA14107 B*52:56
HLA14381 B*52:57
HLA14439 B*52:58
HLA14441 B*52:59
HLA14728 B*52:60
HLA14732 B*52:61
HLA15965 B*52:62
HLA15966 B*52:63
HLA16052 B*52:64
HLA16486 B*52:65
HLA16489 B*52:66
HLA16490 B*52:67
HLA16613 B*52:68
HLA16890 B*52:69
HLA17280 B*52:70
HLA17497 B*52:71
HLA17837 B*52:72
HLA17853 B*52:73
HLA18360 B*52:74
HLA18415 B*52:75
HLA19123 B*52:76
HLA19268 B*52:77
HLA19397 B*52:78
HLA19344 B*52:79
HLA19878 B*52:80
HLA20109 B*52:81
HLA20262 B*52:82
HLA21093 B*52:83
HLA21188 B*52:84
HLA22048 B*52:85
HLA22093 B*52:86
HLA21958 B*52:87
HLA22513 B*52:88
HLA23222 B*52:90
HLA24214 B*52:91
HLA24043 B*52:92
HLA23990 B*52:93
HLA26750 B*52:95
HLA27791 B*52:97
HLA28077 B*52:98
HLA28084 B*52:99
HLA28219 B*52:100
HLA29100 B*52:101
HLA29801 B*52:102
HLA30700 B*52:104
HLA30896 B*52:105
HLA31740 B*52:106
HLA00364 B*53:01:01:01
HLA00365 B*53:02
HLA00366 B*53:03
HLA00987 B*53:04
HLA01178 B*53:05:01
HLA01261 B*53:06
HLA01319 B*53:07
HLA01484 B*53:08:01
HLA01522 B*53:09
HLA02078 B*53:10
HLA02352 B*53:11
HLA02636 B*53:12
HLA02942 B*53:13
HLA03186 B*53:14
HLA03209 B*53:15
HLA03274 B*53:16
HLA03595 B*53:17:01
HLA03609 B*53:18
HLA04095 B*53:19
HLA04462 B*53:20
HLA04412 B*53:21
HLA04713 B*53:22
HLA04817 B*53:23
HLA05862 B*53:24
HLA06687 B*53:25
HLA06934 B*53:26
HLA07192 B*53:27
HLA08066 B*53:28
HLA08355 B*53:29
HLA09439 B*53:30
HLA09681 B*53:31
HLA11019 B*53:32
HLA11021 B*53:33
HLA11239 B*53:34
HLA11425 B*53:35
HLA11827 B*53:36
HLA11955 B*53:37
HLA12282 B*53:38
HLA12579 B*53:39
HLA14003 B*53:40
HLA14149 B*53:41
HLA14990 B*53:42
HLA15280 B*53:43:01
HLA15757 B*53:44
HLA15967 B*53:45
HLA16934 B*53:46
HLA17095 B*53:47
HLA17846 B*53:49
HLA18424 B*53:50
HLA19869 B*53:51
HLA20183 B*53:52
HLA21103 B*53:53
HLA22130 B*53:54
HLA22285 B*53:55
HLA22356 B*53:56
HLA24904 B*53:57
HLA25823 B*53:58
HLA27106 B*53:59
HLA28031 B*53:60
HLA28061 B*53:61
HLA28230 B*53:62
HLA29528 B*53:63
HLA30832 B*53:64
HLA30942 B*53:65
HLA31790 B*53:66
HLA32226 B*53:67
HLA32363 B*53:68
HLA00367 B*54:01:01:01
HLA01204 B*54:02
HLA02027 B*54:03
HLA02095 B*54:04
HLA02079 B*54:06
HLA02179 B*54:07
HLA02679 B*54:09
HLA02716 B*54:10
HLA02751 B*54:11
HLA02752 B*54:12
HLA02944 B*54:13
HLA03356 B*54:14
HLA03387 B*54:15
HLA03480 B*54:16
HLA03508 B*54:17
HLA03748 B*54:18
HLA03841 B*54:19
HLA04719 B*54:20
HLA04732 B*54:21
HLA04735 B*54:22
HLA05401 B*54:23
HLA06284 B*54:24
HLA07535 B*54:25
HLA07758 B*54:26
HLA07963 B*54:27
HLA08576 B*54:28
HLA09500 B*54:29
HLA09879 B*54:30
HLA10764 B*54:31
HLA10765 B*54:32
HLA12012 B*54:33
HLA12593 B*54:34
HLA14958 B*54:35
HLA15638 B*54:36
HLA15969 B*54:37
HLA16018 B*54:38
HLA21947 B*54:39
HLA22884 B*54:40
HLA23002 B*54:41
HLA28611 B*54:42
HLA28904 B*54:43
HLA32302 B*54:44
HLA00368 B*55:01:01:01
HLA00369 B*55:02:01:01
HLA00370 B*55:03
HLA00371 B*55:04
HLA00372 B*55:05
HLA00374 B*55:07
HLA00375 B*55:08
HLA01180 B*55:09
HLA01205 B*55:10
HLA01507 B*55:11
HLA01553 B*55:12
HLA01722 B*55:13
HLA01732 B*55:14
HLA01749 B*55:15
HLA01788 B*55:16
HLA02092 B*55:17
HLA02093 B*55:18
HLA02122 B*55:19
HLA02320 B*55:20
HLA02518 B*55:21
HLA02539 B*55:22
HLA02671 B*55:23
HLA02677 B*55:24
HLA02782 B*55:25
HLA02845 B*55:26
HLA02925 B*55:27
HLA03098 B*55:28:01
HLA03195 B*55:29
HLA03228 B*55:30
HLA03322 B*55:31
HLA03366 B*55:32
HLA03424 B*55:33
HLA03503 B*55:34
HLA03967 B*55:35
HLA04047 B*55:36
HLA03983 B*55:37
HLA04211 B*55:38
HLA04512 B*55:39
HLA04821 B*55:40
HLA05294 B*55:41
HLA05295 B*55:42
HLA05296 B*55:43
HLA05478 B*55:44
HLA05507 B*55:45
HLA05756 B*55:46
HLA05802 B*55:47
HLA05807 B*55:48
HLA06053 B*55:49
HLA06519 B*55:50
HLA06584 B*55:51
HLA06920 B*55:52
HLA06967 B*55:53
HLA07314 B*55:54
HLA07710 B*55:56
HLA08297 B*55:57
HLA08962 B*55:58
HLA09580 B*55:59
HLA10041 B*55:60
HLA10495 B*55:61
HLA10496 B*55:62
HLA10774 B*55:63
HLA11431 B*55:64
HLA11566 B*55:65
HLA11738 B*55:66
HLA11831 B*55:67
HLA12011 B*55:68
HLA12297 B*55:69
HLA12869 B*55:70
HLA13048 B*55:71
HLA13179 B*55:72
HLA13363 B*55:73
HLA13481 B*55:74
HLA13661 B*55:75
HLA13986 B*55:76
HLA14416 B*55:77
HLA14444 B*55:78
HLA15618 B*55:79
HLA15775 B*55:80
HLA16319 B*55:81
HLA16332 B*55:82
HLA16614 B*55:84
HLA16755 B*55:85
HLA17603 B*55:86
HLA17860 B*55:87
HLA19075 B*55:88
HLA19443 B*55:90
HLA19260 B*55:91
HLA19466 B*55:92
HLA19576 B*55:93
HLA20054 B*55:94
HLA20141 B*55:95
HLA20886 B*55:96
HLA22086 B*55:98
HLA22072 B*55:99
HLA22506 B*55:100
HLA22640 B*55:101
HLA22773 B*55:102
HLA22699 B*55:103
HLA22863 B*55:104
HLA22945 B*55:105
HLA23848 B*55:106
HLA26708 B*55:107
HLA28025 B*55:108
HLA28057 B*55:109
HLA28912 B*55:110
HLA29382 B*55:111
HLA29909 B*55:112
HLA31233 B*55:113
HLA30976 B*55:114
HLA31458 B*55:115
HLA31824 B*55:116
HLA32066 B*55:119
HLA32388 B*55:120
HLA32531 B*55:121
HLA32904 B*55:122
HLA33298 B*55:123
HLA00376 B*56:01:01:01
HLA00377 B*56:02:01:01
HLA00378 B*56:03
HLA00379 B*56:04:01:01
HLA00380 B*56:05:01
HLA00988 B*56:06
HLA00989 B*56:07
HLA01564 B*56:08
HLA01625 B*56:09
HLA01658 B*56:10
HLA01688 B*56:11
HLA01764 B*56:12
HLA01892 B*56:13
HLA02002 B*56:14
HLA02043 B*56:15
HLA02261 B*56:16
HLA02565 B*56:17
HLA02691 B*56:18
HLA02852 B*56:20:01
HLA03085 B*56:21
HLA03266 B*56:22
HLA03257 B*56:23
HLA03511 B*56:24
HLA04077 B*56:25
HLA04024 B*56:26
HLA04555 B*56:27
HLA04806 B*56:29
HLA05502 B*56:30
HLA06060 B*56:31
HLA06650 B*56:32
HLA07460 B*56:33
HLA07711 B*56:34
HLA07764 B*56:35
HLA08059 B*56:36
HLA08516 B*56:37
HLA08999 B*56:39
HLA09560 B*56:40
HLA09579 B*56:41
HLA09710 B*56:42
HLA10264 B*56:43
HLA11832 B*56:44
HLA12756 B*56:45
HLA13006 B*56:46
HLA13352 B*56:47
HLA13536 B*56:48
HLA13660 B*56:49
HLA14233 B*56:50
HLA14878 B*56:51
HLA16498 B*56:52
HLA17004 B*56:53
HLA17585 B*56:54
HLA18252 B*56:55:01:02
HLA19022 B*56:56
HLA19151 B*56:57
HLA19566 B*56:58
HLA19454 B*56:59
HLA19714 B*56:60
HLA20507 B*56:61
HLA20394 B*56:62
HLA20609 B*56:63
HLA20786 B*56:64
HLA22135 B*56:65
HLA22388 B*56:66
HLA22896 B*56:67
HLA23337 B*56:68
HLA23017 B*56:69
HLA24221 B*56:70
HLA25835 B*56:71
HLA27051 B*56:72
HLA27456 B*56:73
HLA27788 B*56:74
HLA28645 B*56:75
HLA28773 B*56:76
HLA30695 B*56:78
HLA31368 B*56:79
HLA31196 B*56:80
HLA31051 B*56:81
HLA31616 B*56:82
HLA31798 B*56:83
HLA31792 B*56:84
HLA32004 B*56:85
HLA32517 B*56:86
HLA00381 B*57:01:01:01
HLA00382 B*57:02:01:01
HLA00383 B*57:03:01:01
HLA00384 B*57:04:01
HLA00385 B*57:05
HLA01074 B*57:06
HLA01192 B*57:07
HLA01461 B*57:08
HLA01485 B*57:09
HLA02307 B*57:10
HLA02676 B*57:11
HLA02888 B*57:12
HLA02966 B*57:13
HLA03129 B*57:14:01
HLA03147 B*57:15
HLA03150 B*57:16
HLA03320 B*57:17
HLA03506 B*57:18
HLA03507 B*57:19
HLA03666 B*57:20
HLA03675 B*57:21
HLA03904 B*57:22
HLA04046 B*57:23
HLA03984 B*57:24
HLA03986 B*57:25
HLA04203 B*57:26
HLA04452 B*57:27
HLA04576 B*57:29
HLA04703 B*57:30
HLA04848 B*57:31:01
HLA05424 B*57:32
HLA05476 B*57:33
HLA05503 B*57:34
HLA05513 B*57:35
HLA05562 B*57:36
HLA05876 B*57:37
HLA05958 B*57:38
HLA06229 B*57:39
HLA06240 B*57:40
HLA06241 B*57:41
HLA06249 B*57:42
HLA06250 B*57:43
HLA06315 B*57:44
HLA06683 B*57:45
HLA06688 B*57:46
HLA06700 B*57:47
HLA06883 B*57:48
HLA06942 B*57:49
HLA06949 B*57:50
HLA06974 B*57:51
HLA06989 B*57:52
HLA07455 B*57:53
HLA07456 B*57:54
HLA07545 B*57:55
HLA07708 B*57:56
HLA07748 B*57:57
HLA08073 B*57:58
HLA08294 B*57:59
HLA08371 B*57:60
HLA08927 B*57:61
HLA08997 B*57:62
HLA09303 B*57:63
HLA09312 B*57:64
HLA09577 B*57:65
HLA09909 B*57:66
HLA10038 B*57:67:01
HLA10040 B*57:68
HLA10408 B*57:69
HLA11328 B*57:70
HLA11950 B*57:71
HLA12010 B*57:72
HLA12263 B*57:73
HLA12294 B*57:74
HLA13002 B*57:75
HLA13004 B*57:76
HLA13480 B*57:77
HLA13379 B*57:78
HLA14154 B*57:80
HLA14308 B*57:81
HLA14207 B*57:82
HLA14682 B*57:83
HLA15550 B*57:84
HLA15620 B*57:85
HLA16223 B*57:86
HLA16482 B*57:87
HLA16485 B*57:88
HLA16497 B*57:89
HLA16499 B*57:90
HLA17592 B*57:91
HLA17858 B*57:92
HLA17859 B*57:93
HLA18345 B*57:94
HLA18416 B*57:95
HLA18448 B*57:96
HLA19040 B*57:97
HLA19181 B*57:98Q
HLA19140 B*57:99
HLA19083 B*57:100
HLA19363 B*57:101
HLA19529 B*57:102
HLA19658 B*57:103
HLA19905 B*57:104
HLA19711 B*57:105
HLA20379 B*57:106
HLA20011 B*57:107
HLA20089 B*57:108
HLA20095 B*57:109
HLA20312 B*57:110
HLA20780 B*57:111
HLA20911 B*57:112
HLA21176 B*57:113
HLA21355 B*57:114
HLA22059 B*57:115
HLA22183 B*57:116
HLA22121 B*57:117
HLA22438 B*57:118
HLA22714 B*57:119
HLA22708 B*57:120
HLA22913 B*57:121
HLA23127 B*57:123
HLA24262 B*57:124
HLA24132 B*57:125
HLA24093 B*57:126
HLA25581 B*57:127
HLA26235 B*57:128
HLA26450 B*57:129
HLA27105 B*57:131
HLA27512 B*57:132
HLA27744 B*57:133
HLA27749 B*57:134
HLA28479 B*57:135
HLA28416 B*57:136
HLA28594 B*57:137
HLA28592 B*57:138
HLA29104 B*57:140
HLA29425 B*57:141
HLA30893 B*57:144
HLA32179 B*57:145
HLA32405 B*57:146
HLA32367 B*57:147
HLA32491 B*57:148
HLA32474 B*57:149
HLA32375 B*57:150
HLA32353 B*57:151
HLA33088 B*57:152
HLA33100 B*57:153
HLA33394 B*57:154
HLA33506 B*57:155
HLA33602 B*57:156
HLA00386 B*58:01:01:01
HLA00387 B*58:02:01:01
HLA01142 B*58:04
HLA01181 B*58:05
HLA01312 B*58:06
HLA01680 B*58:07
HLA01723 B*58:08:01
HLA01728 B*58:09
HLA02201 B*58:11
HLA02512 B*58:12
HLA02596 B*58:13
HLA02712 B*58:14
HLA02880 B*58:15
HLA03148 B*58:16:01
HLA03316 B*58:18
HLA03369 B*58:19
HLA03471 B*58:20
HLA03637 B*58:21
HLA03968 B*58:22
HLA04087 B*58:23
HLA04025 B*58:24
HLA04506 B*58:25
HLA04397 B*58:26
HLA04573 B*58:27
HLA04641 B*58:28:01
HLA05297 B*58:29
HLA06058 B*58:32
HLA06226 B*58:33
HLA06649 B*58:34
HLA07199 B*58:35
HLA07309 B*58:36
HLA08067 B*58:37
HLA08365 B*58:38
HLA08995 B*58:40
HLA09302 B*58:41
HLA09315 B*58:42
HLA09328 B*58:43
HLA09664 B*58:44
HLA09684 B*58:45:01
HLA09698 B*58:46
HLA09895 B*58:47
HLA10146 B*58:48
HLA10499 B*58:49
HLA10500 B*58:50
HLA10501 B*58:51
HLA10502 B*58:52
HLA10512 B*58:53
HLA10779 B*58:54
HLA10781 B*58:55
HLA10769 B*58:56
HLA10772 B*58:57
HLA10773 B*58:58
HLA11023 B*58:59:01
HLA12124 B*58:60
HLA12180 B*58:61
HLA12284 B*58:62
HLA12411 B*58:63
HLA12435 B*58:64
HLA12566 B*58:65
HLA12577 B*58:66
HLA12592 B*58:67
HLA12749 B*58:68
HLA12752 B*58:69
HLA13227 B*58:70
HLA13233 B*58:71
HLA13856 B*58:73
HLA14234 B*58:74
HLA14305 B*58:75
HLA14211 B*58:76
HLA14407 B*58:77
HLA14440 B*58:78
HLA14927 B*58:79
HLA14885 B*58:80
HLA15162 B*58:81
HLA15560 B*58:82
HLA15737 B*58:83
HLA16243 B*58:84
HLA16491 B*58:85
HLA16426 B*58:86
HLA16636 B*58:87
HLA16891 B*58:88
HLA16930 B*58:89
HLA17003 B*58:90
HLA17440 B*58:91
HLA18133 B*58:92
HLA19642 B*58:95
HLA20453 B*58:96
HLA20469 B*58:97
HLA20863 B*58:98
HLA20912 B*58:99
HLA21192 B*58:100
HLA22055 B*58:101
HLA22129 B*58:102
HLA22191 B*58:103
HLA22033 B*58:104
HLA22150 B*58:105
HLA22114 B*58:106
HLA21952 B*58:107
HLA22642 B*58:108
HLA22956 B*58:109
HLA23552 B*58:110
HLA23434 B*58:111
HLA23943 B*58:112
HLA24096 B*58:113
HLA24309 B*58:114
HLA24151 B*58:115
HLA24885 B*58:116
HLA24402 B*58:117
HLA25962 B*58:118
HLA25689 B*58:119
HLA26081 B*58:120
HLA26768 B*58:121
HLA26808 B*58:122
HLA27062 B*58:123
HLA27611 B*58:124
HLA27899 B*58:125
HLA28051 B*58:126
HLA28908 B*58:127
HLA30406 B*58:129
HLA31272 B*58:131
HLA31518 B*58:132
HLA32089 B*58:134
HLA33830 B*58:135
HLA00389 B*59:01:01:01
HLA02589 B*59:02
HLA03367 B*59:03
HLA03537 B*59:04
HLA03762 B*59:05
HLA09482 B*59:06
HLA10896 B*59:07
HLA11242 B*59:08
HLA12916 B*59:09
HLA28613 B*59:11
HLA29010 B*59:12
HLA00390 B*67:01:01
HLA01374 B*67:02:01:01
HLA05808 B*67:03
HLA10503 B*67:04
HLA10898 B*67:05
HLA14689 B*67:06
HLA14796 B*67:07
HLA00392 B*73:01:01:01
HLA05386 B*73:02
HLA28802 B*73:03
HLA16309 B*78:01:01:02
HLA00394 B*78:02:01
HLA00396 B*78:03
HLA00990 B*78:04
HLA01403 B*78:05
HLA03368 B*78:06
HLA04712 B*78:07
HLA12300 B*78:08
HLA13984 B*78:09
HLA20138 B*78:10
HLA00398 B*81:01:01:01
HLA01809 B*81:02:01
HLA03049 B*81:03
HLA05306 B*81:05
HLA08387 B*81:06
HLA11447 B*81:07
HLA13861 B*81:08
HLA26055 B*81:09
HLA28039 B*81:10
HLA00399 B*82:01:01:01
HLA01188 B*82:02:01:01
HLA04447 B*82:03
HLA27756 B*82:04
HLA01135 B*83:01
